\select@language {greek}
\select@language {greek}
\select@language {greek}
\contentsline {chapter}{\textPi \textepsilon \textrho \acctonos \textiota \textlambda \texteta \textpsi \texteta }{\textlatin {i}}
\contentsline {chapter}{\foreignlanguage {english}{Abstract}}{\textlatin {iii}}
\contentsline {chapter}{\IeC {\textEpsilon }\IeC {\textupsilon }\IeC {\textchi }\IeC {\textalpha }\IeC {\textrho }\IeC {\textiota }\IeC {\textsigma }\IeC {\texttau }\IeC {\ensuregreek {\acctonos \textiota }}\IeC {\textepsilon }\IeC {\textvarsigma }}{\textlatin {vii}}
\select@language {greek}
\select@language {greek}
\contentsline {chapter}{\textPi \textepsilon \textrho \textiota \textepsilon \textchi \acctonos \textomicron \textmu \textepsilon \textnu \textalpha }{\textlatin {xii}}
\contentsline {chapter}{\selectlanguage {greek}\textKappa \textalpha \texttau \acctonos \textalpha \textlambda \textomicron \textgamma \textomicron \textfinalsigma {} \textSigma \textchi \texteta \textmu \acctonos \textalpha \texttau \textomega \textnu }{\textlatin {xiv}}
\contentsline {chapter}{\textKappa \textalpha \texttau \acctonos \textalpha \textlambda \textomicron \textgamma \textomicron \textfinalsigma {} \textPi \textiota \textnu \acctonos \textalpha \textkappa \textomega \textnu }{\textlatin {xv}}
\contentsline {chapter}{\numberline {1}\IeC {\textEpsilon }\IeC {\textiota }\IeC {\textsigma }\IeC {\textalpha }\IeC {\textgamma }\IeC {\textomega }\IeC {\textgamma }\IeC {\ensuregreek {\acctonos \texteta }}}{1}
\contentsline {section}{\numberline {1.1}\IeC {\textMu }\IeC {\texteta }\IeC {\textchi }\IeC {\textalpha }\IeC {\textnu }\IeC {\textiota }\IeC {\textkappa }\IeC {\ensuregreek {\acctonos \texteta }} \IeC {\textMu }\IeC {\ensuregreek {\acctonos \textalpha }}\IeC {\texttheta }\IeC {\texteta }\IeC {\textsigma }\IeC {\texteta }}{1}
\select@language {greek}
\select@language {greek}
\select@language {greek}
\select@language {greek}
\contentsline {section}{\numberline {1.2}\IeC {\textEpsilon }\IeC {\textnu }\IeC {\textepsilon }\IeC {\textrho }\IeC {\textgamma }\IeC {\texteta }\IeC {\texttau }\IeC {\textiota }\IeC {\textkappa }\IeC {\ensuregreek {\acctonos \texteta }} \IeC {\textMu }\IeC {\texteta }\IeC {\textchi }\IeC {\textalpha }\IeC {\textnu }\IeC {\textiota }\IeC {\textkappa }\IeC {\ensuregreek {\acctonos \texteta }} \IeC {\textMu }\IeC {\ensuregreek {\acctonos \textalpha }}\IeC {\texttheta }\IeC {\texteta }\IeC {\textsigma }\IeC {\texteta }}{4}
\contentsline {section}{\numberline {1.3}\IeC {\textSigma }\IeC {\texttau }\IeC {\ensuregreek {\acctonos \textomicron }}\IeC {\textchi }\IeC {\textomicron }\IeC {\textvarsigma } \IeC {\textepsilon }\IeC {\textrho }\IeC {\textgamma }\IeC {\textalpha }\IeC {\textsigma }\IeC {\ensuregreek {\acctonos \textiota }}\IeC {\textalpha }\IeC {\textvarsigma }}{4}
\contentsline {section}{\numberline {1.4}\IeC {\textOmicron }\IeC {\textrho }\IeC {\textgamma }\IeC {\ensuregreek {\acctonos \textalpha }}\IeC {\textnu }\IeC {\textomega }\IeC {\textsigma }\IeC {\texteta } \IeC {\texttau }\IeC {\ensuregreek {\acctonos \textomicron }}\IeC {\textmu }\IeC {\textomicron }\IeC {\textupsilon }}{5}
\addvspace {1em}
\contentsline {chapter}{\numberline {2}\IeC {\textAlpha }\IeC {\textlambda }\IeC {\textgamma }\IeC {\ensuregreek {\acctonos \textomicron }}\IeC {\textrho }\IeC {\textiota }\IeC {\texttheta }\IeC {\textmu }\IeC {\textomicron }\IeC {\textiota } \IeC {\textmu }\IeC {\ensuregreek {\acctonos \textalpha }}\IeC {\texttheta }\IeC {\texteta }\IeC {\textsigma }\IeC {\texteta }\IeC {\textvarsigma }}{7}
\contentsline {section}{\numberline {2.1}\textlatin {k-}\IeC {\textKappa }\IeC {\textomicron }\IeC {\textnu }\IeC {\texttau }\IeC {\textiota }\IeC {\textnu }\IeC {\ensuregreek {\acctonos \textomicron }}\IeC {\texttau }\IeC {\textepsilon }\IeC {\textrho }\IeC {\textomicron }\IeC {\textiota } \IeC {\textGamma }\IeC {\textepsilon }\IeC {\ensuregreek {\acctonos \textiota }}\IeC {\texttau }\IeC {\textomicron }\IeC {\textnu }\IeC {\textepsilon }\IeC {\textvarsigma }}{7}
\select@language {english}
\select@language {greek}
\select@language {greek}
\select@language {greek}
\contentsline {section}{\numberline {2.2}\textlatin {Naive Bayes}}{9}
\select@language {greek}
\select@language {greek}
\contentsline {section}{\numberline {2.3}\IeC {\textMu }\IeC {\texteta }\IeC {\textchi }\IeC {\textalpha }\IeC {\textnu }\IeC {\ensuregreek {\acctonos \textepsilon }}\IeC {\textvarsigma } \IeC {\textDelta }\IeC {\textiota }\IeC {\textalpha }\IeC {\textnu }\IeC {\textupsilon }\IeC {\textsigma }\IeC {\textmu }\IeC {\ensuregreek {\acctonos \textalpha }}\IeC {\texttau }\IeC {\textomega }\IeC {\textnu } \IeC {\textUpsilon }\IeC {\textpi }\IeC {\textomicron }\IeC {\textsigma }\IeC {\texttau }\IeC {\ensuregreek {\acctonos \texteta }}\IeC {\textrho }\IeC {\textiota }\IeC {\textxi }\IeC {\texteta }\IeC {\textvarsigma }}{10}
\select@language {greek}
\select@language {greek}
\contentsline {section}{\numberline {2.4}\IeC {\textDelta }\IeC {\ensuregreek {\acctonos \textepsilon }}\IeC {\textnu }\IeC {\texttau }\IeC {\textrho }\IeC {\textalpha } \IeC {\textAlpha }\IeC {\textpi }\IeC {\textomicron }\IeC {\textphi }\IeC {\ensuregreek {\acctonos \textalpha }}\IeC {\textsigma }\IeC {\textepsilon }\IeC {\textomega }\IeC {\textnu }}{12}
\select@language {english}
\select@language {greek}
\select@language {greek}
\select@language {greek}
\contentsline {section}{\numberline {2.5}\IeC {\textTau }\IeC {\textupsilon }\IeC {\textchi }\IeC {\textalpha }\IeC {\ensuregreek {\acctonos \textiota }}\IeC {\textalpha } \IeC {\textDelta }\IeC {\ensuregreek {\acctonos \textalpha }}\IeC {\textsigma }\IeC {\texteta }}{15}
\select@language {greek}
\select@language {greek}
\contentsline {chapter}{\numberline {3}\IeC {\textSigma }\IeC {\texttau }\IeC {\textrho }\IeC {\textalpha }\IeC {\texttau }\IeC {\texteta }\IeC {\textgamma }\IeC {\textiota }\IeC {\textkappa }\IeC {\ensuregreek {\acctonos \textepsilon }}\IeC {\textvarsigma } \IeC {\textepsilon }\IeC {\textnu }\IeC {\textepsilon }\IeC {\textrho }\IeC {\textgamma }\IeC {\texteta }\IeC {\texttau }\IeC {\textiota }\IeC {\textkappa }\IeC {\ensuregreek {\acctonos \texteta }}\IeC {\textvarsigma } \IeC {\textmu }\IeC {\ensuregreek {\acctonos \textalpha }}\IeC {\texttheta }\IeC {\texteta }\IeC {\textsigma }\IeC {\texteta }\IeC {\textvarsigma }}{17}
\contentsline {section}{\numberline {3.1}\IeC {\textTau }\IeC {\textiota } \IeC {\textepsilon }\IeC {\ensuregreek {\acctonos \textiota }}\IeC {\textnu }\IeC {\textalpha }\IeC {\textiota } \IeC {\texteta } \IeC {\textmu }\IeC {\ensuregreek {\acctonos \textepsilon }}\IeC {\texttheta }\IeC {\textomicron }\IeC {\textdelta }\IeC {\textomicron }\IeC {\textvarsigma } \IeC {\texttau }\IeC {\texteta }\IeC {\textvarsigma } \IeC {\textEpsilon }\IeC {\textnu }\IeC {\textepsilon }\IeC {\textrho }\IeC {\textgamma }\IeC {\texteta }\IeC {\texttau }\IeC {\textiota }\IeC {\textkappa }\IeC {\ensuregreek {\acctonos \texteta }}\IeC {\textvarsigma } \IeC {\textMu }\IeC {\ensuregreek {\acctonos \textalpha }}\IeC {\texttheta }\IeC {\texteta }\IeC {\textsigma }\IeC {\texteta }\IeC {\textvarsigma }}{17}
\select@language {greek}
\select@language {greek}
\select@language {greek}
\select@language {greek}
\contentsline {section}{\numberline {3.2}\IeC {\textEpsilon }\IeC {\textpi }\IeC {\textiota }\IeC {\textsigma }\IeC {\textkappa }\IeC {\ensuregreek {\acctonos \textomicron }}\IeC {\textpi }\IeC {\texteta }\IeC {\textsigma }\IeC {\texteta }}{20}
\contentsline {subsection}{\numberline {3.2.1}\IeC {\textAlpha }\IeC {\textgamma }\IeC {\textnu }\IeC {\textomega }\IeC {\textsigma }\IeC {\texttau }\IeC {\textiota }\IeC {\textkappa }\IeC {\textiota }\IeC {\textsigma }\IeC {\texttau }\IeC {\textiota }\IeC {\textkappa }\IeC {\ensuregreek {\acctonos \textepsilon }}\IeC {\textvarsigma } \IeC {\textsigma }\IeC {\texttau }\IeC {\textrho }\IeC {\textalpha }\IeC {\texttau }\IeC {\texteta }\IeC {\textgamma }\IeC {\textiota }\IeC {\textkappa }\IeC {\ensuregreek {\acctonos \textepsilon }}\IeC {\textvarsigma }}{21}
\contentsline {subsubsection}{\IeC {\textTau }\IeC {\textupsilon }\IeC {\textchi }\IeC {\textalpha }\IeC {\ensuregreek {\acctonos \textiota }}\IeC {\textalpha } \IeC {\textDelta }\IeC {\textepsilon }\IeC {\textiota }\IeC {\textgamma }\IeC {\textmu }\IeC {\textalpha }\IeC {\texttau }\IeC {\textomicron }\IeC {\textlambda }\IeC {\texteta }\IeC {\textpsi }\IeC {\ensuregreek {\acctonos \textiota }}\IeC {\textalpha }}{21}
\contentsline {subsubsection}{\IeC {\textBeta }\IeC {\textalpha }\IeC {\textsigma }\IeC {\textiota }\IeC {\textsigma }\IeC {\textmu }\IeC {\ensuregreek {\acctonos \textepsilon }}\IeC {\textnu }\IeC {\texteta } \IeC {\textsigma }\IeC {\texttau }\IeC {\texteta }\IeC {\textnu } \IeC {\textpi }\IeC {\textupsilon }\IeC {\textkappa }\IeC {\textnu }\IeC {\ensuregreek {\acctonos \textomicron }}\IeC {\texttau }\IeC {\texteta }\IeC {\texttau }\IeC {\textalpha }}{21}
\select@language {greek}
\select@language {greek}
\contentsline {subsubsection}{\IeC {\textBeta }\IeC {\textalpha }\IeC {\textsigma }\IeC {\textiota }\IeC {\textsigma }\IeC {\textmu }\IeC {\ensuregreek {\acctonos \textepsilon }}\IeC {\textnu }\IeC {\texteta } \IeC {\textsigma }\IeC {\textepsilon } \IeC {\textsigma }\IeC {\textupsilon }\IeC {\textsigma }\IeC {\texttau }\IeC {\ensuregreek {\acctonos \textalpha }}\IeC {\textdelta }\IeC {\textepsilon }\IeC {\textvarsigma }}{22}
\contentsline {subsubsection}{\IeC {\textAlpha }\IeC {\textnu }\IeC {\textalpha }\IeC {\textzeta }\IeC {\ensuregreek {\acctonos \texteta }}\IeC {\texttau }\IeC {\texteta }\IeC {\textsigma }\IeC {\texteta } \IeC {\textsigma }\IeC {\texttau }\IeC {\textomicron }\IeC {\textnu } \IeC {\textchi }\IeC {\ensuregreek {\acctonos \textomega }}\IeC {\textrho }\IeC {\textomicron } \IeC {\texttau }\IeC {\textomega }\IeC {\textnu } \IeC {\textupsilon }\IeC {\textpi }\IeC {\textomicron }\IeC {\texttheta }\IeC {\ensuregreek {\acctonos \textepsilon }}\IeC {\textsigma }\IeC {\textepsilon }\IeC {\textomega }\IeC {\textnu }}{23}
\contentsline {subsection}{\numberline {3.2.2}\IeC {\textMu }\IeC {\texteta } \IeC {\textAlpha }\IeC {\textgamma }\IeC {\textnu }\IeC {\textomega }\IeC {\textsigma }\IeC {\texttau }\IeC {\textiota }\IeC {\textkappa }\IeC {\textiota }\IeC {\textsigma }\IeC {\texttau }\IeC {\textiota }\IeC {\textkappa }\IeC {\ensuregreek {\acctonos \textepsilon }}\IeC {\textvarsigma } \IeC {\textsigma }\IeC {\texttau }\IeC {\textrho }\IeC {\textalpha }\IeC {\texttau }\IeC {\texteta }\IeC {\textgamma }\IeC {\textiota }\IeC {\textkappa }\IeC {\ensuregreek {\acctonos \textepsilon }}\IeC {\textvarsigma }}{23}
\contentsline {subsubsection}{\IeC {\textDelta }\IeC {\textepsilon }\IeC {\textiota }\IeC {\textgamma }\IeC {\textmu }\IeC {\textalpha }\IeC {\texttau }\IeC {\textomicron }\IeC {\textlambda }\IeC {\texteta }\IeC {\textpsi }\IeC {\ensuregreek {\acctonos \textiota }}\IeC {\textalpha } \IeC {\textAlpha }\IeC {\textbeta }\IeC {\textepsilon }\IeC {\textbeta }\IeC {\textalpha }\IeC {\textiota }\IeC {\ensuregreek {\acctonos \textomicron }}\IeC {\texttau }\IeC {\texteta }\IeC {\texttau }\IeC {\textalpha }\IeC {\textvarsigma }}{23}
\select@language {greek}
\select@language {greek}
\contentsline {subsubsection}{\IeC {\textBeta }\IeC {\textalpha }\IeC {\textsigma }\IeC {\textiota }\IeC {\textsigma }\IeC {\textmu }\IeC {\ensuregreek {\acctonos \textepsilon }}\IeC {\textnu }\IeC {\texteta } \IeC {\textsigma }\IeC {\texttau }\IeC {\texteta }\IeC {\textnu } \IeC {\textpi }\IeC {\textupsilon }\IeC {\textkappa }\IeC {\textnu }\IeC {\ensuregreek {\acctonos \textomicron }}\IeC {\texttau }\IeC {\texteta }\IeC {\texttau }\IeC {\textalpha }}{24}
\contentsline {subsubsection}{\IeC {\textMu }\IeC {\textepsilon }\IeC {\ensuregreek {\acctonos \textiota }}\IeC {\textomega }\IeC {\textsigma }\IeC {\texteta } \IeC {\textAlpha }\IeC {\textnu }\IeC {\textalpha }\IeC {\textmu }\IeC {\textepsilon }\IeC {\textnu }\IeC {\ensuregreek {\acctonos \textomicron }}\IeC {\textmu }\IeC {\textepsilon }\IeC {\textnu }\IeC {\textomicron }\IeC {\textupsilon } \IeC {\textSigma }\IeC {\textphi }\IeC {\ensuregreek {\acctonos \textalpha }}\IeC {\textlambda }\IeC {\textmu }\IeC {\textalpha }\IeC {\texttau }\IeC {\textomicron }\IeC {\textvarsigma }}{24}
\contentsline {section}{\numberline {3.3}\IeC {\textPi }\IeC {\textepsilon }\IeC {\textdelta }\IeC {\ensuregreek {\acctonos \textiota }}\IeC {\textalpha } \IeC {\textepsilon }\IeC {\textphi }\IeC {\textalpha }\IeC {\textrho }\IeC {\textmu }\IeC {\textomicron }\IeC {\textgamma }\IeC {\ensuregreek {\acctonos \textomega }}\IeC {\textnu }}{24}
\contentsline {subsection}{\numberline {3.3.1}\IeC {\textUpsilon }\IeC {\textpi }\IeC {\textomicron }\IeC {\textlambda }\IeC {\textomicron }\IeC {\textgamma }\IeC {\textiota }\IeC {\textsigma }\IeC {\texttau }\IeC {\textiota }\IeC {\textkappa }\IeC {\ensuregreek {\acctonos \texteta }} \IeC {\ensuregreek {\acctonos \textomicron }}\IeC {\textrho }\IeC {\textalpha }\IeC {\textsigma }\IeC {\texteta } \& \IeC {\textalpha }\IeC {\textupsilon }\IeC {\texttau }\IeC {\textomicron }\IeC {\textkappa }\IeC {\ensuregreek {\acctonos \textiota }}\IeC {\textnu }\IeC {\texteta }\IeC {\textsigma }\IeC {\texteta }}{24}
\contentsline {subsection}{\numberline {3.3.2}\IeC {\textSigma }\IeC {\textupsilon }\IeC {\textsigma }\IeC {\texttau }\IeC {\ensuregreek {\acctonos \texteta }}\IeC {\textmu }\IeC {\textalpha }\IeC {\texttau }\IeC {\textalpha } \IeC {\textpi }\IeC {\textrho }\IeC {\textomicron }\IeC {\texttau }\IeC {\ensuregreek {\acctonos \textalpha }}\IeC {\textsigma }\IeC {\textepsilon }\IeC {\textomega }\IeC {\textnu } (\foreignlanguage {english}{recommender systems})}{25}
\contentsline {section}{\numberline {3.4}\IeC {\textDelta }\IeC {\textepsilon }\IeC {\textiota }\IeC {\textgamma }\IeC {\textmu }\IeC {\textalpha }\IeC {\texttau }\IeC {\textomicron }\IeC {\textlambda }\IeC {\texteta }\IeC {\textpsi }\IeC {\ensuregreek {\acctonos \textiota }}\IeC {\textalpha } \IeC {\textalpha }\IeC {\textbeta }\IeC {\textepsilon }\IeC {\textbeta }\IeC {\textalpha }\IeC {\textiota }\IeC {\ensuregreek {\acctonos \textomicron }}\IeC {\texttau }\IeC {\texteta }\IeC {\texttau }\IeC {\textalpha }\IeC {\textvarsigma }}{25}
\select@language {english}
\select@language {greek}
\select@language {greek}
\select@language {greek}
\contentsline {subsection}{\numberline {3.4.1}\IeC {\textLambda }\IeC {\textiota }\IeC {\textgamma }\IeC {\ensuregreek {\acctonos \textomicron }}\IeC {\texttau }\IeC {\textepsilon }\IeC {\textrho }\IeC {\textomicron } \IeC {\textbeta }\IeC {\ensuregreek {\acctonos \textepsilon }}\IeC {\textbeta }\IeC {\textalpha }\IeC {\textiota }\IeC {\texteta } \IeC {\textdelta }\IeC {\textepsilon }\IeC {\textiota }\IeC {\textgamma }\IeC {\textmu }\IeC {\textalpha }\IeC {\texttau }\IeC {\textomicron }\IeC {\textlambda }\IeC {\texteta }\IeC {\textpsi }\IeC {\ensuregreek {\acctonos \textiota }}\IeC {\textalpha }}{26}
\contentsline {subsection}{\numberline {3.4.2}\IeC {\textDelta }\IeC {\textepsilon }\IeC {\textiota }\IeC {\textgamma }\IeC {\textmu }\IeC {\textalpha }\IeC {\texttau }\IeC {\textomicron }\IeC {\textlambda }\IeC {\texteta }\IeC {\textpsi }\IeC {\ensuregreek {\acctonos \textiota }}\IeC {\textalpha } \IeC {\textPi }\IeC {\textepsilon }\IeC {\textrho }\IeC {\textiota }\IeC {\texttheta }\IeC {\textomega }\IeC {\textrho }\IeC {\ensuregreek {\acctonos \textiota }}\IeC {\textomicron }\IeC {\textupsilon }}{26}
\contentsline {subsection}{\numberline {3.4.3}\IeC {\textDelta }\IeC {\textepsilon }\IeC {\textiota }\IeC {\textgamma }\IeC {\textmu }\IeC {\textalpha }\IeC {\texttau }\IeC {\textomicron }\IeC {\textlambda }\IeC {\texteta }\IeC {\textpsi }\IeC {\ensuregreek {\acctonos \textiota }}\IeC {\textalpha } \IeC {\textepsilon }\IeC {\textnu }\IeC {\texttau }\IeC {\textrho }\IeC {\textomicron }\IeC {\textpi }\IeC {\ensuregreek {\acctonos \textiota }}\IeC {\textalpha }\IeC {\textvarsigma }}{27}
\contentsline {section}{\numberline {3.5}\IeC {\textAlpha }\IeC {\textnu }\IeC {\textalpha }\IeC {\textzeta }\IeC {\ensuregreek {\acctonos \texteta }}\IeC {\texttau }\IeC {\texteta }\IeC {\textsigma }\IeC {\texteta } \IeC {\textsigma }\IeC {\texttau }\IeC {\textomicron }\IeC {\textnu } \IeC {\textchi }\IeC {\ensuregreek {\acctonos \textomega }}\IeC {\textrho }\IeC {\textomicron } \IeC {\textupsilon }\IeC {\textpi }\IeC {\textomicron }\IeC {\texttheta }\IeC {\ensuregreek {\acctonos \textepsilon }}\IeC {\textsigma }\IeC {\textepsilon }\IeC {\textomega }\IeC {\textnu }}{27}
\select@language {greek}
\select@language {greek}
\contentsline {subsection}{\numberline {3.5.1}\IeC {\textEpsilon }\IeC {\textrho }\IeC {\ensuregreek {\acctonos \textomega }}\IeC {\texttau }\IeC {\texteta }\IeC {\textsigma }\IeC {\texteta } \IeC {\textalpha }\IeC {\textpi }\IeC {\ensuregreek {\acctonos \textomicron }} \IeC {\textdelta }\IeC {\textiota }\IeC {\textalpha }\IeC {\textphi }\IeC {\textomega }\IeC {\textnu }\IeC {\ensuregreek {\acctonos \textiota }}\IeC {\textalpha }}{29}
\select@language {english}
\select@language {greek}
\select@language {greek}
\select@language {greek}
\contentsline {subsection}{\numberline {3.5.2}\IeC {\textEpsilon }\IeC {\textrho }\IeC {\ensuregreek {\acctonos \textomega }}\IeC {\texttau }\IeC {\texteta }\IeC {\textsigma }\IeC {\texteta } \IeC {\textalpha }\IeC {\textpi }\IeC {\ensuregreek {\acctonos \textomicron }} \IeC {\textepsilon }\IeC {\textpi }\IeC {\textiota }\IeC {\texttau }\IeC {\textrho }\IeC {\textomicron }\IeC {\textpi }\IeC {\ensuregreek {\acctonos \texteta }}}{30}
\contentsline {section}{\numberline {3.6}\IeC {\textTau }\IeC {\textupsilon }\IeC {\textchi }\IeC {\textalpha }\IeC {\ensuregreek {\acctonos \textiota }}\IeC {\textalpha } \IeC {\textdelta }\IeC {\textepsilon }\IeC {\textiota }\IeC {\textgamma }\IeC {\textmu }\IeC {\textalpha }\IeC {\texttau }\IeC {\textomicron }\IeC {\textlambda }\IeC {\texteta }\IeC {\textpsi }\IeC {\ensuregreek {\acctonos \textiota }}\IeC {\textalpha }}{31}
\contentsline {chapter}{\numberline {4}\IeC {\textEpsilon }\IeC {\textmu }\IeC {\textpi }\IeC {\textepsilon }\IeC {\textiota }\IeC {\textrho }\IeC {\textiota }\IeC {\textkappa }\IeC {\ensuregreek {\acctonos \texteta }} \IeC {\textmu }\IeC {\textepsilon }\IeC {\textlambda }\IeC {\ensuregreek {\acctonos \textepsilon }}\IeC {\texttau }\IeC {\texteta }}{33}
\contentsline {section}{\numberline {4.1}\IeC {\textEta } \IeC {\textbeta }\IeC {\textiota }\IeC {\textbeta }\IeC {\textlambda }\IeC {\textiota }\IeC {\textomicron }\IeC {\texttheta }\IeC {\ensuregreek {\acctonos \texteta }}\IeC {\textkappa }\IeC {\texteta } \foreignlanguage {english}{JCLAL}}{33}
\select@language {greek}
\select@language {greek}
\select@language {english}
\select@language {greek}
\select@language {english}
\select@language {greek}
\contentsline {section}{\numberline {4.2}\IeC {\textDelta }\IeC {\textepsilon }\IeC {\textdelta }\IeC {\textomicron }\IeC {\textmu }\IeC {\ensuregreek {\acctonos \textepsilon }}\IeC {\textnu }\IeC {\textalpha }}{34}
\contentsline {section}{\numberline {4.3}\IeC {\textPi }\IeC {\textepsilon }\IeC {\textiota }\IeC {\textrho }\IeC {\textalpha }\IeC {\textmu }\IeC {\textalpha }\IeC {\texttau }\IeC {\textiota }\IeC {\textkappa }\IeC {\ensuregreek {\acctonos \texteta }} \IeC {\textdelta }\IeC {\textiota }\IeC {\textalpha }\IeC {\textdelta }\IeC {\textiota }\IeC {\textkappa }\IeC {\textalpha }\IeC {\textsigma }\IeC {\ensuregreek {\acctonos \textiota }}\IeC {\textalpha }}{35}
\select@language {english}
\select@language {greek}
\select@language {greek}
\select@language {greek}
\contentsline {subsection}{\numberline {4.3.1}\IeC {\textTau }\IeC {\textepsilon }\IeC {\textchi }\IeC {\textnu }\IeC {\textiota }\IeC {\textkappa }\IeC {\ensuregreek {\acctonos \textepsilon }}\IeC {\textvarsigma } \IeC {\textlambda }\IeC {\textepsilon }\IeC {\textpi }\IeC {\texttau }\IeC {\textomicron }\IeC {\textmu }\IeC {\ensuregreek {\acctonos \textepsilon }}\IeC {\textrho }\IeC {\textepsilon }\IeC {\textiota }\IeC {\textepsilon }\IeC {\textvarsigma }}{36}
\contentsline {subsection}{\numberline {4.3.2}\IeC {\textAlpha }\IeC {\textpi }\IeC {\textomicron }\IeC {\texttau }\IeC {\textepsilon }\IeC {\textlambda }\IeC {\ensuregreek {\acctonos \textepsilon }}\IeC {\textsigma }\IeC {\textmu }\IeC {\textalpha }\IeC {\texttau }\IeC {\textalpha }}{37}
\select@language {english}
\select@language {greek}
\select@language {greek}
\select@language {greek}
\select@language {greek}
\select@language {greek}
\select@language {english}
\select@language {greek}
\select@language {greek}
\select@language {greek}
\select@language {greek}
\select@language {greek}
\contentsline {section}{\numberline {4.4}\IeC {\textAlpha }\IeC {\textnu }\IeC {\ensuregreek {\acctonos \textalpha }}\IeC {\textlambda }\IeC {\textupsilon }\IeC {\textsigma }\IeC {\texteta } \IeC {\textalpha }\IeC {\textpi }\IeC {\textomicron }\IeC {\texttau }\IeC {\textepsilon }\IeC {\textlambda }\IeC {\textepsilon }\IeC {\textsigma }\IeC {\textmu }\IeC {\ensuregreek {\acctonos \textalpha }}\IeC {\texttau }\IeC {\textomega }\IeC {\textnu }}{44}
\select@language {english}
\select@language {greek}
\select@language {english}
\select@language {greek}
\select@language {english}
\select@language {greek}
\select@language {english}
\select@language {greek}
\select@language {greek}
\select@language {greek}
\select@language {english}
\select@language {greek}
\select@language {english}
\select@language {greek}
\select@language {english}
\select@language {greek}
\select@language {english}
\select@language {greek}
\select@language {english}
\select@language {greek}
\select@language {greek}
\select@language {greek}
\select@language {english}
\select@language {greek}
\contentsline {chapter}{\numberline {5}\IeC {\textEpsilon }\IeC {\textpi }\IeC {\ensuregreek {\acctonos \textiota }}\IeC {\textlambda }\IeC {\textomicron }\IeC {\textgamma }\IeC {\textomicron }\IeC {\textvarsigma }}{49}
\contentsline {section}{\numberline {5.1}\IeC {\textSigma }\IeC {\textupsilon }\IeC {\textmu }\IeC {\textpi }\IeC {\textepsilon }\IeC {\textrho }\IeC {\ensuregreek {\acctonos \textalpha }}\IeC {\textsigma }\IeC {\textmu }\IeC {\textalpha }\IeC {\texttau }\IeC {\textalpha }}{49}
\contentsline {section}{\numberline {5.2}\IeC {\textMu }\IeC {\textepsilon }\IeC {\textlambda }\IeC {\textlambda }\IeC {\textomicron }\IeC {\textnu }\IeC {\texttau }\IeC {\textiota }\IeC {\textkappa }\IeC {\ensuregreek {\acctonos \textepsilon }}\IeC {\textvarsigma } \IeC {\textepsilon }\IeC {\textpi }\IeC {\textepsilon }\IeC {\textkappa }\IeC {\texttau }\IeC {\ensuregreek {\acctonos \textalpha }}\IeC {\textsigma }\IeC {\textepsilon }\IeC {\textiota }\IeC {\textvarsigma }}{49}
\contentsline {chapter}{\numberline {\MakeUppercase {\textalpha \anw@true \anw@print \relax }}\IeC {\textKappa }\IeC {\ensuregreek {\acctonos \textomega }}\IeC {\textdelta }\IeC {\textiota }\IeC {\textkappa }\IeC {\textepsilon }\IeC {\textvarsigma }}{51}
\select@language {english}
\contentsline {section}{\numberline {A.1}Python}{51}
\select@language {greek}
\select@language {greek}
\select@language {greek}
\select@language {greek}
\contentsline {section}{\numberline {A.2}\foreignlanguage {english}{Bash }}{55}
\select@language {greek}
\select@language {greek}
\contentsline {section}{\numberline {A.3}\foreignlanguage {english}{XML }}{56}
\select@language {greek}
\select@language {greek}
\select@language {greek}
\contentsline {chapter}{\numberline {\MakeUppercase {\textbeta \anw@true \anw@print \relax }}\IeC {\textAlpha }\IeC {\textpi }\IeC {\textomicron }\IeC {\textdelta }\IeC {\textepsilon }\IeC {\ensuregreek {\acctonos \textiota }}\IeC {\textxi }\IeC {\textepsilon }\IeC {\textiota }\IeC {\textvarsigma } \& \IeC {\textTheta }\IeC {\textepsilon }\IeC {\textomega }\IeC {\textrho }\IeC {\ensuregreek {\acctonos \texteta }}\IeC {\textmu }\IeC {\textalpha }\IeC {\texttau }\IeC {\textalpha }}{61}
\contentsline {section}{\numberline {\MakeUppercase {\textbeta \anw@true \anw@print \relax }.1}\IeC {\textMu }\IeC {\texteta }\IeC {\textchi }\IeC {\textalpha }\IeC {\textnu }\IeC {\ensuregreek {\acctonos \textepsilon }}\IeC {\textvarsigma } \IeC {\textDelta }\IeC {\textiota }\IeC {\textalpha }\IeC {\textnu }\IeC {\textupsilon }\IeC {\textsigma }\IeC {\textmu }\IeC {\ensuregreek {\acctonos \textalpha }}\IeC {\texttau }\IeC {\textomega }\IeC {\textnu } \IeC {\textUpsilon }\IeC {\textpi }\IeC {\textomicron }\IeC {\textsigma }\IeC {\texttau }\IeC {\ensuregreek {\acctonos \texteta }}\IeC {\textrho }\IeC {\textiota }\IeC {\textxi }\IeC {\texteta }\IeC {\textvarsigma }}{61}
\select@language {greek}
\select@language {greek}
\select@language {greek}
\select@language {greek}
\contentsline {section}{\numberline {\MakeUppercase {\textbeta \anw@true \anw@print \relax }.2}\IeC {\textTheta }\IeC {\textepsilon }\IeC {\textomega }\IeC {\textrho }\IeC {\ensuregreek {\acctonos \texteta }}\IeC {\textmu }\IeC {\textalpha }\IeC {\texttau }\IeC {\textalpha }}{64}
\contentsline {chapter}{\IeC {\textBeta }\IeC {\textiota }\IeC {\textbeta }\IeC {\textlambda }\IeC {\textiota }\IeC {\textomicron }\IeC {\textgamma }\IeC {\textrho }\IeC {\textalpha }\IeC {\textphi }\IeC {\ensuregreek {\acctonos \textiota }}\IeC {\textalpha }}{65}
\contentsline {chapter}{\IeC {\textAlpha }\IeC {\textpi }\IeC {\ensuregreek {\acctonos \textomicron }}\IeC {\textdelta }\IeC {\textomicron }\IeC {\textsigma }\IeC {\texteta } \IeC {\textxi }\IeC {\textepsilon }\IeC {\textnu }\IeC {\ensuregreek {\acctonos \textomicron }}\IeC {\textgamma }\IeC {\textlambda }\IeC {\textomega }\IeC {\textsigma }\IeC {\textsigma }\IeC {\textomega }\IeC {\textnu } \IeC {\ensuregreek {\acctonos \textomicron }}\IeC {\textrho }\IeC {\textomega }\IeC {\textnu }}{67}
\contentsline {subparagraph}{}{71}
