\relax 
\bibstyle{hellas}
\select@language{greek}
\@writefile{toc}{\select@language{greek}}
\@writefile{lof}{\select@language{greek}}
\@writefile{lot}{\select@language{greek}}
\select@language{greek}
\@writefile{toc}{\select@language{greek}}
\@writefile{lof}{\select@language{greek}}
\@writefile{lot}{\select@language{greek}}
\select@language{greek}
\@writefile{toc}{\select@language{greek}}
\@writefile{lof}{\select@language{greek}}
\@writefile{lot}{\select@language{greek}}
\@input{mytex/abstract.aux}
\@input{mytex/acknowledgements.aux}
\@input{mytex/software.aux}
\select@language{greek}
\@writefile{toc}{\select@language{greek}}
\@writefile{lof}{\select@language{greek}}
\@writefile{lot}{\select@language{greek}}
\select@language{greek}
\@writefile{toc}{\select@language{greek}}
\@writefile{lof}{\select@language{greek}}
\@writefile{lot}{\select@language{greek}}
\@writefile{toc}{\contentsline {chapter}{\textPi \textepsilon \textrho \textiota \textepsilon \textchi \acctonos \textomicron \textmu \textepsilon \textnu \textalpha }{\textlatin  {xii}}}
\citation{Vapnik:1995}
\citation{SettlesPresent}
\citation{SettlesPresent}
\citation{SettlesPresent}
\citation{Geogebra.Lacoste}
\citation{tong2001support}
\@writefile{toc}{\contentsline {chapter}{\selectlanguage  {greek}\textKappa \textalpha \texttau \acctonos \textalpha \textlambda \textomicron \textgamma \textomicron \textfinalsigma {} \textSigma \textchi \texteta \textmu \acctonos \textalpha \texttau \textomega \textnu }{\textlatin  {xiv}}}
\@writefile{toc}{\contentsline {chapter}{\textKappa \textalpha \texttau \acctonos \textalpha \textlambda \textomicron \textgamma \textomicron \textfinalsigma {} \textPi \textiota \textnu \acctonos \textalpha \textkappa \textomega \textnu }{\textlatin  {xv}}}
\newlabel{lastfront}{{}{\textlatin  {xv}}}
\@input{mytex/intro.aux}
\@writefile{toc}{\addvspace {1em}}
\@input{mytex/chap2new.aux}
\@input{mytex/chapter34new.aux}
\@input{mytex/chap5.aux}
\@input{mytex/chap6.aux}
\@input{mytex/appA.aux}
\@input{mytex/appB.aux}
\bibdata{references}
\bibcite{Yasser}{1}
\bibcite{Alpaydin:2014}{2}
\bibcite{Angluin1988}{3}
\bibcite{atkinson1992optimum}{4}
\bibcite{atlas1990training}{5}
\bibcite{baum1992query}{6}
\bibcite{Cohn1994}{7}
\bibcite{Cohn:1996}{8}
\bibcite{dasgupta2011two}{9}
\bibcite{dasgupta2008hierarchical}{10}
\bibcite{dos2015selectively}{11}
\bibcite{elahi2016survey}{12}
\bibcite{Eremenko}{13}
\bibcite{fedorov1972theory}{14}
\@writefile{toc}{\contentsline {chapter}{\IeC {\textBeta }\IeC {\textiota }\IeC {\textbeta }\IeC {\textlambda }\IeC {\textiota }\IeC {\textomicron }\IeC {\textgamma }\IeC {\textrho }\IeC {\textalpha }\IeC {\textphi }\IeC {\ensuregreek {\acctonos \textiota }}\IeC {\textalpha }}{65}}
\bibcite{garcia2008extension}{15}
\bibcite{guo2007optimistic}{16}
\bibcite{ho1995random}{17}
\bibcite{kearns1994toward}{18}
\bibcite{Kotsiantis07}{19}
\bibcite{kremer2014active}{20}
\bibcite{Geogebra.Lacoste}{21}
\bibcite{lewis1994sequential}{22}
\bibcite{Mitchell1997machine}{23}
\bibcite{pereira2017empirical}{24}
\bibcite{Platt:1999}{25}
\bibcite{Quinlan1993}{26}
\bibcite{reyes2016jclal}{27}
\bibcite{Settles2008}{28}
\bibcite{Settles2010}{29}
\bibcite{SettlesPresent}{30}
\bibcite{Settles2012}{31}
\bibcite{settles2008active}{32}
\bibcite{sivaraman2014active}{33}
\bibcite{Tan:2005}{34}
\bibcite{tong2001support}{35}
\bibcite{Vapnik:1995}{36}
\bibcite{Vapnik:1999}{37}
\bibcite{Winston:svm}{38}
\bibcite{Wu:2007}{39}
\bibcite{zhu2003combining}{40}
\@writefile{toc}{\contentsline {chapter}{\IeC {\textAlpha }\IeC {\textpi }\IeC {\ensuregreek {\acctonos \textomicron }}\IeC {\textdelta }\IeC {\textomicron }\IeC {\textsigma }\IeC {\texteta } \IeC {\textxi }\IeC {\textepsilon }\IeC {\textnu }\IeC {\ensuregreek {\acctonos \textomicron }}\IeC {\textgamma }\IeC {\textlambda }\IeC {\textomega }\IeC {\textsigma }\IeC {\textsigma }\IeC {\textomega }\IeC {\textnu } \IeC {\ensuregreek {\acctonos \textomicron }}\IeC {\textrho }\IeC {\textomega }\IeC {\textnu }}{67}}
\@input{mytex/glossary.aux}
\newlabel{lastback}{{\MakeUppercase  {\textbeta \anw@true  \anw@print  \relax }.2}{71}}
\@writefile{toc}{\contentsline {subparagraph}{}{71}}
