\relax 
\providecommand\hyper@newdestlabel[2]{}
\providecommand\zref@newlabel[2]{}
\providecommand\HyperFirstAtBeginDocument{\AtBeginDocument}
\HyperFirstAtBeginDocument{\ifx\hyper@anchor\@undefined
\global\let\oldcontentsline\contentsline
\gdef\contentsline#1#2#3#4{\oldcontentsline{#1}{#2}{#3}}
\global\let\oldnewlabel\newlabel
\gdef\newlabel#1#2{\newlabelxx{#1}#2}
\gdef\newlabelxx#1#2#3#4#5#6{\oldnewlabel{#1}{{#2}{#3}}}
\AtEndDocument{\ifx\hyper@anchor\@undefined
\let\contentsline\oldcontentsline
\let\newlabel\oldnewlabel
\fi}
\fi}
\global\let\hyper@last\relax 
\gdef\HyperFirstAtBeginDocument#1{#1}
\providecommand*\HyPL@Entry[1]{}
\providecommand\AtEndDvi@Check{}
\AtEndDvi@Check
\HyPL@Entry{0<</P(1)>>}
\@writefile{toc}{\beamer@endinputifotherversion {3.36pt}}
\@writefile{nav}{\beamer@endinputifotherversion {3.36pt}}
\select@language{english}
\@writefile{toc}{\select@language{english}}
\@writefile{lof}{\select@language{english}}
\@writefile{lot}{\select@language{english}}
\@writefile{nav}{\headcommand {\slideentry {0}{0}{1}{1/1}{}{0}}}
\@writefile{nav}{\headcommand {\beamer@framepages {1}{1}}}
\HyPL@Entry{1<</P(2)>>}
\@writefile{nav}{\headcommand {\slideentry {0}{0}{2}{2/2}{}{0}}}
\@writefile{nav}{\headcommand {\beamer@framepages {2}{2}}}
\HyPL@Entry{2<</P(3)>>}
\@writefile{toc}{\beamer@sectionintoc {1}{Περίληψη}{3}{0}{1}}
\@writefile{nav}{\headcommand {\sectionentry {1}{Περίληψη}{3}{Περίληψη}{0}}}
\@writefile{nav}{\headcommand {\beamer@sectionpages {1}{2}}}
\@writefile{nav}{\headcommand {\beamer@subsectionpages {1}{2}}}
\@writefile{nav}{\headcommand {\slideentry {1}{0}{1}{3/3}{}{0}}}
\@writefile{nav}{\headcommand {\beamer@framepages {3}{3}}}
\HyPL@Entry{3<</P(4)>>}
\@writefile{toc}{\beamer@sectionintoc {2}{Εισαγωγή}{4}{0}{2}}
\@writefile{nav}{\headcommand {\sectionentry {2}{Εισαγωγή}{4}{Εισαγωγή}{0}}}
\@writefile{nav}{\headcommand {\beamer@sectionpages {3}{3}}}
\@writefile{nav}{\headcommand {\beamer@subsectionpages {3}{3}}}
\@writefile{nav}{\headcommand {\slideentry {2}{0}{1}{4/4}{}{0}}}
\@writefile{nav}{\headcommand {\beamer@framepages {4}{4}}}
\HyPL@Entry{4<</P(5)>>}
\@writefile{nav}{\headcommand {\slideentry {2}{0}{2}{5/5}{}{0}}}
\@writefile{nav}{\headcommand {\beamer@framepages {5}{5}}}
\citation{Cohn1994}
\citation{Settles2008}
\citation{Settles2012}
\HyPL@Entry{5<</P(6)>>}
\@writefile{nav}{\headcommand {\slideentry {2}{0}{3}{6/6}{}{0}}}
\@writefile{nav}{\headcommand {\beamer@framepages {6}{6}}}
\HyPL@Entry{6<</P(7)>>}
\@writefile{nav}{\headcommand {\slideentry {2}{0}{4}{7/7}{}{0}}}
\@writefile{nav}{\headcommand {\beamer@framepages {7}{7}}}
\HyPL@Entry{7<</P(8)>>}
\@writefile{toc}{\beamer@sectionintoc {3}{Αλγόριθμοι μάθησης}{8}{0}{3}}
\@writefile{nav}{\headcommand {\sectionentry {3}{Αλγόριθμοι μάθησης}{8}{Αλγόριθμοι μάθησης}{0}}}
\@writefile{nav}{\headcommand {\beamer@sectionpages {4}{7}}}
\@writefile{nav}{\headcommand {\beamer@subsectionpages {4}{7}}}
\@writefile{loa}{\contentsline {algorithm}{\numberline {1}{\ignorespaces Αλγόριθμος kNN για συνάρτηση $f:\mathbb  {R}^n \rightarrow \mathcal  {C}$ }}}
\newlabel{kNN}{{1}{8}{Αλγόριθμοι μάθησης}{Doc-Start}{}}
\@writefile{snm}{\beamer@slide {kNN}{8}}
\@writefile{nav}{\headcommand {\slideentry {3}{0}{1}{8/8}{}{0}}}
\@writefile{nav}{\headcommand {\beamer@framepages {8}{8}}}
\HyPL@Entry{8<</P(9)>>}
\@writefile{nav}{\headcommand {\slideentry {3}{0}{2}{9/9}{}{0}}}
\@writefile{nav}{\headcommand {\beamer@framepages {9}{9}}}
\HyPL@Entry{9<</P(10)>>}
\@writefile{nav}{\headcommand {\slideentry {3}{0}{3}{10/10}{}{0}}}
\@writefile{nav}{\headcommand {\beamer@framepages {10}{10}}}
\HyPL@Entry{10<</P(11)>>}
\@writefile{nav}{\headcommand {\slideentry {3}{0}{4}{11/11}{}{0}}}
\@writefile{nav}{\headcommand {\beamer@framepages {11}{11}}}
\HyPL@Entry{11<</P(12)>>}
\@writefile{nav}{\headcommand {\slideentry {3}{0}{5}{12/12}{}{0}}}
\@writefile{nav}{\headcommand {\beamer@framepages {12}{12}}}
\HyPL@Entry{12<</P(13)>>}
\@writefile{nav}{\headcommand {\slideentry {3}{0}{6}{13/13}{}{0}}}
\@writefile{nav}{\headcommand {\beamer@framepages {13}{13}}}
\HyPL@Entry{13<</P(14)>>}
\@writefile{nav}{\headcommand {\slideentry {3}{0}{7}{14/14}{}{0}}}
\@writefile{nav}{\headcommand {\beamer@framepages {14}{14}}}
\HyPL@Entry{14<</P(15)>>}
\@writefile{toc}{\beamer@sectionintoc {4}{Στρατηγικές ενεργητικής μάθησης}{15}{0}{4}}
\@writefile{nav}{\headcommand {\sectionentry {4}{Στρατηγικές ενεργητικής μάθησης}{15}{Στρατηγικές ενεργητικής μάθησης}{0}}}
\@writefile{nav}{\headcommand {\beamer@sectionpages {8}{14}}}
\@writefile{nav}{\headcommand {\beamer@subsectionpages {8}{14}}}
\@writefile{nav}{\headcommand {\slideentry {4}{0}{1}{15/15}{}{0}}}
\@writefile{nav}{\headcommand {\beamer@framepages {15}{15}}}
\HyPL@Entry{15<</P(16)>>}
\@writefile{nav}{\headcommand {\slideentry {4}{0}{2}{16/16}{}{0}}}
\@writefile{nav}{\headcommand {\beamer@framepages {16}{16}}}
\HyPL@Entry{16<</P(17)>>}
\@writefile{nav}{\headcommand {\slideentry {4}{0}{3}{17/17}{}{0}}}
\@writefile{nav}{\headcommand {\beamer@framepages {17}{17}}}
\HyPL@Entry{17<</P(18)>>}
\@writefile{nav}{\headcommand {\slideentry {4}{0}{4}{18/18}{}{0}}}
\@writefile{nav}{\headcommand {\beamer@framepages {18}{18}}}
\HyPL@Entry{18<</P(19)>>}
\@writefile{nav}{\headcommand {\slideentry {4}{0}{5}{19/19}{}{0}}}
\@writefile{nav}{\headcommand {\beamer@framepages {19}{19}}}
\HyPL@Entry{19<</P(20)>>}
\@writefile{nav}{\headcommand {\slideentry {4}{0}{6}{20/20}{}{0}}}
\@writefile{nav}{\headcommand {\beamer@framepages {20}{20}}}
\HyPL@Entry{20<</P(21)>>}
\@writefile{loa}{\contentsline {algorithm}{\numberline {2}{\ignorespaces Αλγόριθμος για pool based δειγματοληψία αβεβαιότητας}}}
\newlabel{UNC}{{2}{21}{Στρατηγικές ενεργητικής μάθησης}{Doc-Start}{}}
\@writefile{snm}{\beamer@slide {UNC}{21}}
\@writefile{nav}{\headcommand {\slideentry {4}{0}{7}{21/21}{}{0}}}
\@writefile{nav}{\headcommand {\beamer@framepages {21}{21}}}
\HyPL@Entry{21<</P(22)>>}
\@writefile{nav}{\headcommand {\slideentry {4}{0}{8}{22/22}{}{0}}}
\@writefile{nav}{\headcommand {\beamer@framepages {22}{22}}}
\HyPL@Entry{22<</P(23)>>}
\@writefile{nav}{\headcommand {\slideentry {4}{0}{9}{23/23}{}{0}}}
\@writefile{nav}{\headcommand {\beamer@framepages {23}{23}}}
\HyPL@Entry{23<</P(24)>>}
\@writefile{nav}{\headcommand {\slideentry {4}{0}{10}{24/24}{}{0}}}
\@writefile{nav}{\headcommand {\beamer@framepages {24}{24}}}
\HyPL@Entry{24<</P(25)>>}
\@writefile{nav}{\headcommand {\slideentry {4}{0}{11}{25/25}{}{0}}}
\@writefile{nav}{\headcommand {\beamer@framepages {25}{25}}}
\HyPL@Entry{25<</P(26)>>}
\@writefile{nav}{\headcommand {\slideentry {4}{0}{12}{26/26}{}{0}}}
\@writefile{nav}{\headcommand {\beamer@framepages {26}{26}}}
\HyPL@Entry{26<</P(27)>>}
\@writefile{nav}{\headcommand {\slideentry {4}{0}{13}{27/27}{}{0}}}
\@writefile{nav}{\headcommand {\beamer@framepages {27}{27}}}
\HyPL@Entry{27<</P(28)>>}
\@writefile{nav}{\headcommand {\slideentry {4}{0}{14}{28/28}{}{0}}}
\@writefile{nav}{\headcommand {\beamer@framepages {28}{28}}}
\HyPL@Entry{28<</P(29)>>}
\@writefile{nav}{\headcommand {\slideentry {4}{0}{15}{29/29}{}{0}}}
\@writefile{nav}{\headcommand {\beamer@framepages {29}{29}}}
\HyPL@Entry{29<</P(30)>>}
\@writefile{nav}{\headcommand {\slideentry {4}{0}{16}{30/30}{}{0}}}
\@writefile{nav}{\headcommand {\beamer@framepages {30}{30}}}
\HyPL@Entry{30<</P(31)>>}
\@writefile{nav}{\headcommand {\slideentry {4}{0}{17}{31/31}{}{0}}}
\@writefile{nav}{\headcommand {\beamer@framepages {31}{31}}}
\HyPL@Entry{31<</P(32)>>}
\@writefile{nav}{\headcommand {\slideentry {4}{0}{18}{32/32}{}{0}}}
\@writefile{nav}{\headcommand {\beamer@framepages {32}{32}}}
\HyPL@Entry{32<</P(33)>>}
\@writefile{toc}{\beamer@sectionintoc {5}{Αποτελέσματα}{33}{0}{5}}
\@writefile{nav}{\headcommand {\sectionentry {5}{Αποτελέσματα}{33}{Αποτελέσματα}{0}}}
\@writefile{nav}{\headcommand {\beamer@sectionpages {15}{32}}}
\@writefile{nav}{\headcommand {\beamer@subsectionpages {15}{32}}}
\@writefile{nav}{\headcommand {\slideentry {5}{0}{1}{33/33}{}{0}}}
\@writefile{nav}{\headcommand {\beamer@framepages {33}{33}}}
\HyPL@Entry{33<</P(34)>>}
\@writefile{nav}{\headcommand {\slideentry {5}{0}{2}{34/34}{}{0}}}
\@writefile{nav}{\headcommand {\beamer@framepages {34}{34}}}
\HyPL@Entry{34<</P(35)>>}
\@writefile{nav}{\headcommand {\slideentry {5}{0}{3}{35/35}{}{0}}}
\@writefile{nav}{\headcommand {\beamer@framepages {35}{35}}}
\HyPL@Entry{35<</P(36)>>}
\@writefile{nav}{\headcommand {\slideentry {5}{0}{4}{36/36}{}{0}}}
\@writefile{nav}{\headcommand {\beamer@framepages {36}{36}}}
\HyPL@Entry{36<</P(37)>>}
\@writefile{nav}{\headcommand {\slideentry {5}{0}{5}{37/37}{}{0}}}
\@writefile{nav}{\headcommand {\beamer@framepages {37}{37}}}
\HyPL@Entry{37<</P(38)>>}
\@writefile{toc}{\beamer@sectionintoc {6}{Συμπεράσματα}{38}{0}{6}}
\@writefile{nav}{\headcommand {\sectionentry {6}{Συμπεράσματα}{38}{Συμπεράσματα}{0}}}
\@writefile{nav}{\headcommand {\beamer@sectionpages {33}{37}}}
\@writefile{nav}{\headcommand {\beamer@subsectionpages {33}{37}}}
\@writefile{nav}{\headcommand {\slideentry {6}{0}{1}{38/38}{}{0}}}
\@writefile{nav}{\headcommand {\beamer@framepages {38}{38}}}
\HyPL@Entry{38<</P(39)>>}
\@writefile{nav}{\headcommand {\slideentry {6}{0}{2}{39/39}{}{0}}}
\@writefile{nav}{\headcommand {\beamer@framepages {39}{39}}}
\bibstyle{siam}
\bibdata{citations}
\bibcite{Cohn1994}{\hyperlink {beamerbibCohn1994}{1}}
\bibcite{Settles2008}{\hyperlink {beamerbibSettles2008}{2}}
\bibcite{Settles2012}{\hyperlink {beamerbibSettles2012}{3}}
\HyPL@Entry{39<</P(40)>>}
\@writefile{nav}{\headcommand {\slideentry {6}{0}{3}{40/40}{}{0}}}
\@writefile{nav}{\headcommand {\beamer@framepages {40}{40}}}
\@writefile{nav}{\headcommand {\beamer@partpages {1}{40}}}
\@writefile{nav}{\headcommand {\beamer@subsectionpages {38}{40}}}
\@writefile{nav}{\headcommand {\beamer@sectionpages {38}{40}}}
\@writefile{nav}{\headcommand {\beamer@documentpages {40}}}
\@writefile{nav}{\headcommand {\def \inserttotalframenumber {40}}}
\zref@newlabel{LastPage}{\default{6}\page{40}\abspage{40}}
