\relax 
\providecommand\hyper@newdestlabel[2]{}
\providecommand\zref@newlabel[2]{}
\providecommand\HyperFirstAtBeginDocument{\AtBeginDocument}
\HyperFirstAtBeginDocument{\ifx\hyper@anchor\@undefined
\global\let\oldcontentsline\contentsline
\gdef\contentsline#1#2#3#4{\oldcontentsline{#1}{#2}{#3}}
\global\let\oldnewlabel\newlabel
\gdef\newlabel#1#2{\newlabelxx{#1}#2}
\gdef\newlabelxx#1#2#3#4#5#6{\oldnewlabel{#1}{{#2}{#3}}}
\AtEndDocument{\ifx\hyper@anchor\@undefined
\let\contentsline\oldcontentsline
\let\newlabel\oldnewlabel
\fi}
\fi}
\global\let\hyper@last\relax 
\gdef\HyperFirstAtBeginDocument#1{#1}
\providecommand*\HyPL@Entry[1]{}
\providecommand\AtEndDvi@Check{}
\AtEndDvi@Check
\HyPL@Entry{0<</P(1)>>}
\@writefile{toc}{\beamer@endinputifotherversion {3.36pt}}
\@writefile{nav}{\beamer@endinputifotherversion {3.36pt}}
\select@language{english}
\@writefile{toc}{\select@language{english}}
\@writefile{lof}{\select@language{english}}
\@writefile{lot}{\select@language{english}}
\@writefile{nav}{\headcommand {\slideentry {0}{0}{1}{1/1}{}{0}}}
\@writefile{nav}{\headcommand {\beamer@framepages {1}{1}}}
\HyPL@Entry{1<</P(2)>>}
\@writefile{nav}{\headcommand {\slideentry {0}{0}{2}{2/2}{}{0}}}
\@writefile{nav}{\headcommand {\beamer@framepages {2}{2}}}
\HyPL@Entry{2<</P(3)>>}
\@writefile{nav}{\headcommand {\slideentry {0}{0}{3}{3/3}{}{0}}}
\@writefile{nav}{\headcommand {\beamer@framepages {3}{3}}}
\citation{Mandel2008}
\HyPL@Entry{3<</P(4)>>}
\@writefile{toc}{\beamer@sectionintoc {1}{Πρόβλημα}{4}{0}{1}}
\@writefile{nav}{\headcommand {\sectionentry {1}{Πρόβλημα}{4}{Πρόβλημα}{0}}}
\@writefile{nav}{\headcommand {\beamer@sectionpages {1}{3}}}
\@writefile{nav}{\headcommand {\beamer@subsectionpages {1}{3}}}
\@writefile{toc}{\beamer@subsectionintoc {1}{1}{Το σύστημα}{4}{0}{1}}
\@writefile{nav}{\headcommand {\beamer@subsectionentry {0}{1}{1}{4}{Το σύστημα}}\headcommand {\beamer@subsectionpages {4}{3}}}
\citation{Mandel2008}
\citation{Mandel2008}
\citation{Mandel2008}
\@writefile{nav}{\headcommand {\slideentry {1}{1}{1}{4/7}{Το σύστημα}{0}}}
\@writefile{nav}{\headcommand {\beamer@framepages {4}{7}}}
\HyPL@Entry{7<</P(5)>>}
\@writefile{toc}{\beamer@subsectionintoc {1}{2}{Στόχοι ενός trader}{8}{0}{1}}
\@writefile{nav}{\headcommand {\beamer@subsectionentry {0}{1}{2}{8}{Στόχοι ενός trader}}\headcommand {\beamer@subsectionpages {4}{7}}}
\@writefile{nav}{\headcommand {\slideentry {1}{2}{1}{8/11}{Στόχοι ενός trader}{0}}}
\@writefile{nav}{\headcommand {\beamer@framepages {8}{11}}}
\HyPL@Entry{11<</P(6)>>}
\@writefile{toc}{\beamer@sectionintoc {2}{Δεδομένα}{12}{0}{2}}
\@writefile{nav}{\headcommand {\sectionentry {2}{Δεδομένα}{12}{Δεδομένα}{0}}}
\@writefile{nav}{\headcommand {\beamer@sectionpages {4}{11}}}
\@writefile{nav}{\headcommand {\beamer@subsectionpages {8}{11}}}
\@writefile{toc}{\beamer@subsectionintoc {2}{1}{Τι δεδομένα;}{12}{0}{2}}
\@writefile{nav}{\headcommand {\beamer@subsectionentry {0}{2}{1}{12}{Τι δεδομένα;}}\headcommand {\beamer@subsectionpages {12}{11}}}
\@writefile{nav}{\headcommand {\slideentry {2}{1}{1}{12/18}{Τι δεδομένα;}{0}}}
\@writefile{nav}{\headcommand {\beamer@framepages {12}{18}}}
\HyPL@Entry{18<</P(7)>>}
\@writefile{toc}{\beamer@subsectionintoc {2}{2}{Από αρχείο CSV}{19}{0}{2}}
\@writefile{nav}{\headcommand {\beamer@subsectionentry {0}{2}{2}{19}{Από αρχείο CSV}}\headcommand {\beamer@subsectionpages {12}{18}}}
\@writefile{nav}{\headcommand {\slideentry {2}{2}{1}{19/19}{Από αρχείο CSV}{0}}}
\@writefile{nav}{\headcommand {\beamer@framepages {19}{19}}}
\HyPL@Entry{19<</P(8)>>}
\@writefile{toc}{\beamer@subsectionintoc {2}{3}{Από το WWW}{20}{0}{2}}
\@writefile{nav}{\headcommand {\beamer@subsectionentry {0}{2}{3}{20}{Από το WWW}}\headcommand {\beamer@subsectionpages {19}{19}}}
\@writefile{nav}{\headcommand {\slideentry {2}{3}{1}{20/20}{Από το WWW}{0}}}
\@writefile{nav}{\headcommand {\beamer@framepages {20}{20}}}
\HyPL@Entry{20<</P(9)>>}
\@writefile{toc}{\beamer@sectionintoc {3}{Πρόβλεψη}{21}{0}{3}}
\@writefile{nav}{\headcommand {\sectionentry {3}{Πρόβλεψη}{21}{Πρόβλεψη}{0}}}
\@writefile{nav}{\headcommand {\beamer@sectionpages {12}{20}}}
\@writefile{nav}{\headcommand {\beamer@subsectionpages {20}{20}}}
\@writefile{toc}{\beamer@subsectionintoc {3}{1}{Τι και πώς}{21}{0}{3}}
\@writefile{nav}{\headcommand {\beamer@subsectionentry {0}{3}{1}{21}{Τι και πώς}}\headcommand {\beamer@subsectionpages {21}{20}}}
\@writefile{nav}{\headcommand {\slideentry {3}{1}{1}{21/21}{Τι και πώς}{0}}}
\@writefile{nav}{\headcommand {\beamer@framepages {21}{21}}}
\HyPL@Entry{21<</P(10)>>}
\@writefile{nav}{\headcommand {\slideentry {3}{1}{2}{22/24}{Τι και πώς}{0}}}
\@writefile{nav}{\headcommand {\beamer@framepages {22}{24}}}
\HyPL@Entry{24<</P(11)>>}
\@writefile{toc}{\beamer@subsectionintoc {3}{2}{Το μοντέλο}{25}{0}{3}}
\@writefile{nav}{\headcommand {\beamer@subsectionentry {0}{3}{2}{25}{Το μοντέλο}}\headcommand {\beamer@subsectionpages {21}{24}}}
\@writefile{nav}{\headcommand {\slideentry {3}{2}{1}{25/25}{Το μοντέλο}{0}}}
\@writefile{nav}{\headcommand {\beamer@framepages {25}{25}}}
\HyPL@Entry{25<</P(12)>>}
\@writefile{nav}{\headcommand {\slideentry {3}{2}{2}{26/27}{Το μοντέλο}{0}}}
\@writefile{nav}{\headcommand {\beamer@framepages {26}{27}}}
\HyPL@Entry{27<</P(13)>>}
\@writefile{nav}{\headcommand {\slideentry {3}{2}{3}{28/28}{Το μοντέλο}{0}}}
\@writefile{nav}{\headcommand {\beamer@framepages {28}{28}}}
\HyPL@Entry{28<</P(14)>>}
\@writefile{nav}{\headcommand {\slideentry {3}{2}{4}{29/29}{Το μοντέλο}{0}}}
\@writefile{nav}{\headcommand {\beamer@framepages {29}{29}}}
\HyPL@Entry{29<</P(15)>>}
\@writefile{nav}{\headcommand {\slideentry {3}{2}{5}{30/30}{Το μοντέλο}{0}}}
\@writefile{nav}{\headcommand {\beamer@framepages {30}{30}}}
\HyPL@Entry{30<</P(16)>>}
\@writefile{toc}{\beamer@subsectionintoc {3}{3}{Μαθηματικά εργαλεία}{31}{0}{3}}
\@writefile{nav}{\headcommand {\beamer@subsectionentry {0}{3}{3}{31}{Μαθηματικά εργαλεία}}\headcommand {\beamer@subsectionpages {25}{30}}}
\@writefile{nav}{\headcommand {\slideentry {3}{3}{1}{31/33}{Μαθηματικά εργαλεία}{0}}}
\@writefile{nav}{\headcommand {\beamer@framepages {31}{33}}}
\HyPL@Entry{33<</P(17)>>}
\@writefile{toc}{\beamer@sectionintoc {4}{Αξιολόγηση}{34}{0}{4}}
\@writefile{nav}{\headcommand {\sectionentry {4}{Αξιολόγηση}{34}{Αξιολόγηση}{0}}}
\@writefile{nav}{\headcommand {\beamer@sectionpages {21}{33}}}
\@writefile{nav}{\headcommand {\beamer@subsectionpages {31}{33}}}
\@writefile{toc}{\beamer@subsectionintoc {4}{1}{Κριτήρια}{34}{0}{4}}
\@writefile{nav}{\headcommand {\beamer@subsectionentry {0}{4}{1}{34}{Κριτήρια}}\headcommand {\beamer@subsectionpages {34}{33}}}
\@writefile{nav}{\headcommand {\slideentry {4}{1}{1}{34/35}{Κριτήρια}{0}}}
\@writefile{nav}{\headcommand {\beamer@framepages {34}{35}}}
\HyPL@Entry{35<</P(18)>>}
\@writefile{toc}{\beamer@subsectionintoc {4}{2}{Προσομοίωση M. Carlo}{36}{0}{4}}
\@writefile{nav}{\headcommand {\beamer@subsectionentry {0}{4}{2}{36}{Προσομοίωση M. Carlo}}\headcommand {\beamer@subsectionpages {34}{35}}}
\@writefile{nav}{\headcommand {\slideentry {4}{2}{1}{36/38}{Προσομοίωση M. Carlo}{0}}}
\@writefile{nav}{\headcommand {\beamer@framepages {36}{38}}}
\HyPL@Entry{38<</P(19)>>}
\@writefile{nav}{\headcommand {\slideentry {4}{2}{2}{39/39}{Προσομοίωση M. Carlo}{0}}}
\@writefile{nav}{\headcommand {\beamer@framepages {39}{39}}}
\HyPL@Entry{39<</P(20)>>}
\@writefile{toc}{\beamer@subsectionintoc {4}{3}{Αποτελέσματα}{40}{0}{4}}
\@writefile{nav}{\headcommand {\beamer@subsectionentry {0}{4}{3}{40}{Αποτελέσματα}}\headcommand {\beamer@subsectionpages {36}{39}}}
\@writefile{nav}{\headcommand {\slideentry {4}{3}{1}{40/40}{Αποτελέσματα}{0}}}
\@writefile{nav}{\headcommand {\beamer@framepages {40}{40}}}
\HyPL@Entry{40<</P(21)>>}
\@writefile{toc}{\beamer@sectionintoc {5}{Επενδύσεις}{41}{0}{5}}
\@writefile{nav}{\headcommand {\sectionentry {5}{Επενδύσεις}{41}{Επενδύσεις}{0}}}
\@writefile{nav}{\headcommand {\beamer@sectionpages {34}{40}}}
\@writefile{nav}{\headcommand {\beamer@subsectionpages {40}{40}}}
\@writefile{toc}{\beamer@subsectionintoc {5}{1}{Αποτελέσματα}{41}{0}{5}}
\@writefile{nav}{\headcommand {\beamer@subsectionentry {0}{5}{1}{41}{Αποτελέσματα}}\headcommand {\beamer@subsectionpages {41}{40}}}
\@writefile{nav}{\headcommand {\slideentry {5}{1}{1}{41/41}{Αποτελέσματα}{0}}}
\@writefile{nav}{\headcommand {\beamer@framepages {41}{41}}}
\HyPL@Entry{41<</P(22)>>}
\@writefile{nav}{\headcommand {\slideentry {5}{1}{2}{42/42}{Αποτελέσματα}{0}}}
\@writefile{nav}{\headcommand {\beamer@framepages {42}{42}}}
\citation{Babypips}
\HyPL@Entry{42<</P(23)>>}
\@writefile{toc}{\beamer@sectionintoc {6}{Επίλογος}{43}{0}{6}}
\@writefile{nav}{\headcommand {\sectionentry {6}{Επίλογος}{43}{Επίλογος}{0}}}
\@writefile{nav}{\headcommand {\beamer@sectionpages {41}{42}}}
\@writefile{nav}{\headcommand {\beamer@subsectionpages {41}{42}}}
\@writefile{toc}{\beamer@subsectionintoc {6}{1}{Μερικές σκέψεις}{43}{0}{6}}
\@writefile{nav}{\headcommand {\beamer@subsectionentry {0}{6}{1}{43}{Μερικές σκέψεις}}\headcommand {\beamer@subsectionpages {43}{42}}}
\citation{Babypips}
\citation{Babypips}
\citation{Babypips}
\citation{Babypips}
\citation{Babypips}
\@writefile{nav}{\headcommand {\slideentry {6}{1}{1}{43/48}{Μερικές σκέψεις}{0}}}
\@writefile{nav}{\headcommand {\beamer@framepages {43}{48}}}
\HyPL@Entry{48<</P(24)>>}
\@writefile{toc}{\beamer@subsectionintoc {6}{2}{Ερωτήσεις}{49}{0}{6}}
\@writefile{nav}{\headcommand {\beamer@subsectionentry {0}{6}{2}{49}{Ερωτήσεις}}\headcommand {\beamer@subsectionpages {43}{48}}}
\@writefile{nav}{\headcommand {\slideentry {6}{2}{1}{49/49}{Ερωτήσεις}{0}}}
\@writefile{nav}{\headcommand {\beamer@framepages {49}{49}}}
\bibstyle{siam}
\bibdata{citations}
\HyPL@Entry{49<</P(25)>>}
\@writefile{toc}{\beamer@subsectionintoc {6}{3}{Αναφορές}{50}{0}{6}}
\@writefile{nav}{\headcommand {\beamer@subsectionentry {0}{6}{3}{50}{Αναφορές}}\headcommand {\beamer@subsectionpages {49}{49}}}
\@writefile{nav}{\headcommand {\slideentry {6}{3}{1}{50/50}{Αναφορές}{0}}}
\@writefile{nav}{\headcommand {\beamer@framepages {50}{50}}}
\@writefile{nav}{\headcommand {\beamer@partpages {1}{50}}}
\@writefile{nav}{\headcommand {\beamer@subsectionpages {50}{50}}}
\@writefile{nav}{\headcommand {\beamer@sectionpages {43}{50}}}
\@writefile{nav}{\headcommand {\beamer@documentpages {50}}}
\@writefile{nav}{\headcommand {\def \inserttotalframenumber {25}}}
\zref@newlabel{LastPage}{\default{3}\page{50}\abspage{50}}
