\beamer@endinputifotherversion {3.36pt}
\select@language {english}
\beamer@sectionintoc {1}{Περίληψη}{3}{0}{1}
\beamer@sectionintoc {2}{Εισαγωγή}{4}{0}{2}
\beamer@sectionintoc {3}{Αλγόριθμοι μάθησης}{8}{0}{3}
\beamer@sectionintoc {4}{Στρατηγικές ενεργητικής μάθησης}{15}{0}{4}
\beamer@sectionintoc {5}{Αποτελέσματα}{33}{0}{5}
\beamer@sectionintoc {6}{Συμπεράσματα}{38}{0}{6}
