\relax 
\@writefile{toc}{\contentsline {chapter}{\textPi \textepsilon \textrho \acctonos \textiota \textlambda \texteta \textpsi \texteta }{\textlatin  {i}}}
\@writefile{toc}{\contentsline {chapter}{\foreignlanguage  {english}{Abstract}}{\textlatin  {iii}}}
\@setckpt{mytex/abstract}{
\setcounter{page}{4}
\setcounter{equation}{0}
\setcounter{enumi}{0}
\setcounter{enumii}{0}
\setcounter{enumiii}{0}
\setcounter{enumiv}{0}
\setcounter{footnote}{0}
\setcounter{mpfootnote}{0}
\setcounter{parentequation}{0}
\setcounter{part}{0}
\setcounter{chapter}{0}
\setcounter{section}{0}
\setcounter{subsection}{0}
\setcounter{subsubsection}{0}
\setcounter{paragraph}{0}
\setcounter{subparagraph}{0}
\setcounter{figure}{0}
\setcounter{table}{0}
\setcounter{float@type}{16}
\setcounter{algorithm}{0}
\setcounter{ALG@line}{0}
\setcounter{ALG@rem}{0}
\setcounter{ALG@nested}{0}
\setcounter{ALG@Lnr}{2}
\setcounter{ALG@blocknr}{10}
\setcounter{ALG@storecount}{0}
\setcounter{ALG@tmpcounter}{0}
\setcounter{lstnumber}{1}
\setcounter{definition}{0}
\setcounter{proposition}{0}
\setcounter{theorem}{0}
\setcounter{corollary}{0}
\setcounter{lemma}{0}
\setcounter{example}{0}
\setcounter{remark}{0}
\setcounter{notation}{0}
\setcounter{law}{0}
\setcounter{lstlisting}{0}
}
