\relax 
\citation{Winston:svm}
\@writefile{toc}{\contentsline {chapter}{\numberline {\MakeUppercase  {\textbeta \anw@true  \anw@print  \relax }}\IeC {\textAlpha }\IeC {\textpi }\IeC {\textomicron }\IeC {\textdelta }\IeC {\textepsilon }\IeC {\ensuregreek {\acctonos \textiota }}\IeC {\textxi }\IeC {\textepsilon }\IeC {\textiota }\IeC {\textvarsigma } \& \IeC {\textTheta }\IeC {\textepsilon }\IeC {\textomega }\IeC {\textrho }\IeC {\ensuregreek {\acctonos \texteta }}\IeC {\textmu }\IeC {\textalpha }\IeC {\texttau }\IeC {\textalpha }}{61}}
\@writefile{lof}{\addvspace {10\p@ }}
\@writefile{lot}{\addvspace {10\p@ }}
\@writefile{toc}{\contentsline {section}{\numberline {\MakeUppercase  {\textbeta \anw@true  \anw@print  \relax }.1}\IeC {\textMu }\IeC {\texteta }\IeC {\textchi }\IeC {\textalpha }\IeC {\textnu }\IeC {\ensuregreek {\acctonos \textepsilon }}\IeC {\textvarsigma } \IeC {\textDelta }\IeC {\textiota }\IeC {\textalpha }\IeC {\textnu }\IeC {\textupsilon }\IeC {\textsigma }\IeC {\textmu }\IeC {\ensuregreek {\acctonos \textalpha }}\IeC {\texttau }\IeC {\textomega }\IeC {\textnu } \IeC {\textUpsilon }\IeC {\textpi }\IeC {\textomicron }\IeC {\textsigma }\IeC {\texttau }\IeC {\ensuregreek {\acctonos \texteta }}\IeC {\textrho }\IeC {\textiota }\IeC {\textxi }\IeC {\texteta }\IeC {\textvarsigma }}{61}}
\@writefile{lof}{\contentsline {figure}{\numberline {\MakeUppercase  {\textbeta \anw@true  \anw@print  \relax }.1}{\ignorespaces \IeC {\textSigma }\IeC {\textchi }\IeC {\ensuregreek {\acctonos \textepsilon }}\IeC {\textdelta }\IeC {\textiota }\IeC {\textomicron } \IeC {\texttau }\IeC {\textomicron }\IeC {\textupsilon } \IeC {\textbeta }\IeC {\ensuregreek {\acctonos \textepsilon }}\IeC {\textlambda }\IeC {\texttau }\IeC {\textiota }\IeC {\textsigma }\IeC {\texttau }\IeC {\textomicron }\IeC {\textupsilon } \IeC {\textupsilon }\IeC {\textpi }\IeC {\textepsilon }\IeC {\textrho }\IeC {\textepsilon }\IeC {\textpi }\IeC {\ensuregreek {\acctonos \textiota }}\IeC {\textpi }\IeC {\textepsilon }\IeC {\textdelta }\IeC {\textomicron }\IeC {\textupsilon } \IeC {\textsigma }\IeC {\texttau }\IeC {\texteta }\IeC {\textnu } \IeC {\textpi }\IeC {\textepsilon }\IeC {\textrho }\IeC {\ensuregreek {\acctonos \textiota }}\IeC {\textpi }\IeC {\texttau }\IeC {\textomega }\IeC {\textsigma }\IeC {\texteta } \IeC {\textdelta }\IeC {\ensuregreek {\acctonos \textupsilon }}\IeC {\textomicron } \IeC {\textgamma }\IeC {\textrho }\IeC {\textalpha }\IeC {\textmu }\IeC {\textmu }\IeC {\textiota }\IeC {\textkappa }\IeC {\ensuregreek {\acctonos \textalpha }} \IeC {\textdelta }\IeC {\textiota }\IeC {\textalpha }\IeC {\textchi }\IeC {\textomega }\IeC {\textrho }\IeC {\ensuregreek {\acctonos \textiota }}\IeC {\textsigma }\IeC {\textiota }\IeC {\textmu }\IeC {\textomega }\IeC {\textnu } \IeC {\textsigma }\IeC {\textupsilon }\IeC {\textnu }\IeC {\ensuregreek {\acctonos \textomicron }}\IeC {\textlambda }\IeC {\textomega }\IeC {\textnu }.}}{61}}
\select@language{greek}
\@writefile{toc}{\select@language{greek}}
\@writefile{lof}{\select@language{greek}}
\@writefile{lot}{\select@language{greek}}
\select@language{greek}
\@writefile{toc}{\select@language{greek}}
\@writefile{lof}{\select@language{greek}}
\@writefile{lot}{\select@language{greek}}
\newlabel{svm:par}{{\MakeUppercase  {\textbeta \anw@true  \anw@print  \relax }.1}{62}}
\newlabel{svm1:par}{{\MakeUppercase  {\textbeta \anw@true  \anw@print  \relax }.2}{62}}
\newlabel{svm2:par}{{\MakeUppercase  {\textbeta \anw@true  \anw@print  \relax }.4}{62}}
\@writefile{lof}{\contentsline {figure}{\numberline {\MakeUppercase  {\textbeta \anw@true  \anw@print  \relax }.2}{\ignorespaces \IeC {\textSigma }\IeC {\textchi }\IeC {\ensuregreek {\acctonos \textepsilon }}\IeC {\textdelta }\IeC {\textiota }\IeC {\textomicron } \IeC {\textgamma }\IeC {\textiota }\IeC {\textalpha } \IeC {\texttau }\IeC {\texteta }\IeC {\textnu } \IeC {\textepsilon }\IeC {\ensuregreek {\acctonos \textupsilon }}\IeC {\textrho }\IeC {\textepsilon }\IeC {\textsigma }\IeC {\texteta } \IeC {\texttau }\IeC {\textomicron }\IeC {\textupsilon } \IeC {\textpi }\IeC {\textlambda }\IeC {\ensuregreek {\acctonos \textalpha }}\IeC {\texttau }\IeC {\textomicron }\IeC {\textupsilon }\IeC {\textvarsigma } \IeC {\texttau }\IeC {\textomicron }\IeC {\textupsilon } \IeC {\guillemotleft }\IeC {\textdelta }\IeC {\textrho }\IeC {\ensuregreek {\acctonos \textomicron }}\IeC {\textmu }\IeC {\textomicron }\IeC {\textupsilon }\IeC {\guillemotright }, \IeC {\textmu }\IeC {\textepsilon } \IeC {\texttau }\IeC {\textalpha } \IeC {\textdelta }\IeC {\textiota }\IeC {\textalpha }\IeC {\textnu }\IeC {\ensuregreek {\acctonos \textupsilon }}\IeC {\textsigma }\IeC {\textmu }\IeC {\textalpha }\IeC {\texttau }\IeC {\textalpha } $\mathbf  {x}_{+}, \mathbf  {x}_{o}$.}}{62}}
\newlabel{svm3:par}{{\MakeUppercase  {\textbeta \anw@true  \anw@print  \relax }.6}{62}}
\citation{Vapnik:1999}
\newlabel{svm4:par}{{\MakeUppercase  {\textbeta \anw@true  \anw@print  \relax }.7}{63}}
\newlabel{svm5:par:lagr}{{\MakeUppercase  {\textbeta \anw@true  \anw@print  \relax }.8}{63}}
\newlabel{svm6:par}{{\MakeUppercase  {\textbeta \anw@true  \anw@print  \relax }.9}{63}}
\newlabel{svm7:par}{{\MakeUppercase  {\textbeta \anw@true  \anw@print  \relax }.10}{63}}
\newlabel{svm8:par}{{\MakeUppercase  {\textbeta \anw@true  \anw@print  \relax }.11}{63}}
\select@language{greek}
\@writefile{toc}{\select@language{greek}}
\@writefile{lof}{\select@language{greek}}
\@writefile{lot}{\select@language{greek}}
\select@language{greek}
\@writefile{toc}{\select@language{greek}}
\@writefile{lof}{\select@language{greek}}
\@writefile{lot}{\select@language{greek}}
\@writefile{toc}{\contentsline {section}{\numberline {\MakeUppercase  {\textbeta \anw@true  \anw@print  \relax }.2}\IeC {\textTheta }\IeC {\textepsilon }\IeC {\textomega }\IeC {\textrho }\IeC {\ensuregreek {\acctonos \texteta }}\IeC {\textmu }\IeC {\textalpha }\IeC {\texttau }\IeC {\textalpha }}{64}}
\newlabel{eq:Mercer}{{\MakeUppercase  {\textbeta \anw@true  \anw@print  \relax }.12}{64}}
\@setckpt{mytex/appB}{
\setcounter{page}{65}
\setcounter{equation}{13}
\setcounter{enumi}{2}
\setcounter{enumii}{0}
\setcounter{enumiii}{0}
\setcounter{enumiv}{0}
\setcounter{footnote}{0}
\setcounter{mpfootnote}{0}
\setcounter{parentequation}{12}
\setcounter{part}{0}
\setcounter{chapter}{2}
\setcounter{section}{2}
\setcounter{subsection}{0}
\setcounter{subsubsection}{0}
\setcounter{paragraph}{0}
\setcounter{subparagraph}{0}
\setcounter{figure}{2}
\setcounter{table}{0}
\setcounter{float@type}{16}
\setcounter{algorithm}{4}
\setcounter{ALG@line}{12}
\setcounter{ALG@rem}{0}
\setcounter{ALG@nested}{0}
\setcounter{ALG@Lnr}{2}
\setcounter{ALG@blocknr}{10}
\setcounter{ALG@storecount}{0}
\setcounter{ALG@tmpcounter}{0}
\setcounter{lstnumber}{36}
\setcounter{definition}{0}
\setcounter{proposition}{0}
\setcounter{theorem}{1}
\setcounter{corollary}{0}
\setcounter{lemma}{0}
\setcounter{example}{0}
\setcounter{remark}{0}
\setcounter{notation}{0}
\setcounter{law}{0}
\setcounter{lstlisting}{0}
}
