\relax 
\citation{Settles2012}
\citation{Settles2012}
\@writefile{toc}{\contentsline {chapter}{\numberline {4}\IeC {\textSigma }\IeC {\texttau }\IeC {\textrho }\IeC {\textalpha }\IeC {\texttau }\IeC {\texteta }\IeC {\textgamma }\IeC {\textiota }\IeC {\textkappa }\IeC {\ensuregreek {\acctonos \textepsilon }}\IeC {\textvarsigma }}{25}}
\@writefile{lof}{\addvspace {10\p@ }}
\@writefile{lot}{\addvspace {10\p@ }}
\@writefile{toc}{\contentsline {section}{\numberline {4.1}\IeC {\textDelta }\IeC {\textepsilon }\IeC {\textiota }\IeC {\textgamma }\IeC {\textmu }\IeC {\textalpha }\IeC {\texttau }\IeC {\textomicron }\IeC {\textlambda }\IeC {\texteta }\IeC {\textpsi }\IeC {\ensuregreek {\acctonos \textiota }}\IeC {\textalpha } \IeC {\textalpha }\IeC {\textbeta }\IeC {\textepsilon }\IeC {\textbeta }\IeC {\textalpha }\IeC {\textiota }\IeC {\ensuregreek {\acctonos \textomicron }}\IeC {\texttau }\IeC {\texteta }\IeC {\texttau }\IeC {\textalpha }\IeC {\textvarsigma }}{25}}
\select@language{english}
\@writefile{toc}{\select@language{english}}
\@writefile{lof}{\select@language{english}}
\@writefile{lot}{\select@language{english}}
\@writefile{loa}{\contentsline {algorithm}{\numberline {3}{\ignorespaces \textgreek  {\IeC {\textAlpha }\IeC {\textlambda }\IeC {\textgamma }\IeC {\ensuregreek {\acctonos \textomicron }}\IeC {\textrho }\IeC {\textiota }\IeC {\texttheta }\IeC {\textmu }\IeC {\textomicron }\IeC {\textvarsigma } \IeC {\textgamma }\IeC {\textiota }\IeC {\textalpha }} pool based \textgreek  {\IeC {\textdelta }\IeC {\textepsilon }\IeC {\textiota }\IeC {\textgamma }\IeC {\textmu }\IeC {\textalpha }\IeC {\texttau }\IeC {\textomicron }\IeC {\textlambda }\IeC {\texteta }\IeC {\textpsi }\IeC {\ensuregreek {\acctonos \textiota }}\IeC {\textalpha } \IeC {\textalpha }\IeC {\textbeta }\IeC {\textepsilon }\IeC {\textbeta }\IeC {\textalpha }\IeC {\textiota }\IeC {\ensuregreek {\acctonos \textomicron }}\IeC {\texttau }\IeC {\texteta }\IeC {\texttau }\IeC {\textalpha }\IeC {\textvarsigma }}}}{25}}
\newlabel{UNC}{{3}{25}}
\select@language{greek}
\@writefile{toc}{\select@language{greek}}
\@writefile{lof}{\select@language{greek}}
\@writefile{lot}{\select@language{greek}}
\select@language{greek}
\@writefile{toc}{\select@language{greek}}
\@writefile{lof}{\select@language{greek}}
\@writefile{lot}{\select@language{greek}}
\select@language{greek}
\@writefile{toc}{\select@language{greek}}
\@writefile{lof}{\select@language{greek}}
\@writefile{lot}{\select@language{greek}}
\@writefile{toc}{\contentsline {subsection}{\numberline {4.1.1}\IeC {\textLambda }\IeC {\textiota }\IeC {\textgamma }\IeC {\ensuregreek {\acctonos \textomicron }}\IeC {\texttau }\IeC {\textepsilon }\IeC {\textrho }\IeC {\textomicron } \IeC {\textbeta }\IeC {\ensuregreek {\acctonos \textepsilon }}\IeC {\textbeta }\IeC {\textalpha }\IeC {\textiota }\IeC {\texteta } \IeC {\textdelta }\IeC {\textepsilon }\IeC {\textiota }\IeC {\textgamma }\IeC {\textmu }\IeC {\textalpha }\IeC {\texttau }\IeC {\textomicron }\IeC {\textlambda }\IeC {\texteta }\IeC {\textpsi }\IeC {\ensuregreek {\acctonos \textiota }}\IeC {\textalpha }}{26}}
\@writefile{toc}{\contentsline {subsection}{\numberline {4.1.2}\IeC {\textDelta }\IeC {\textepsilon }\IeC {\textiota }\IeC {\textgamma }\IeC {\textmu }\IeC {\textalpha }\IeC {\texttau }\IeC {\textomicron }\IeC {\textlambda }\IeC {\texteta }\IeC {\textpsi }\IeC {\ensuregreek {\acctonos \textiota }}\IeC {\textalpha } \IeC {\textPi }\IeC {\textepsilon }\IeC {\textrho }\IeC {\textiota }\IeC {\texttheta }\IeC {\textomega }\IeC {\textrho }\IeC {\ensuregreek {\acctonos \textiota }}\IeC {\textomicron }\IeC {\textupsilon }}{26}}
\@writefile{toc}{\contentsline {subsection}{\numberline {4.1.3}\IeC {\textDelta }\IeC {\textepsilon }\IeC {\textiota }\IeC {\textgamma }\IeC {\textmu }\IeC {\textalpha }\IeC {\texttau }\IeC {\textomicron }\IeC {\textlambda }\IeC {\texteta }\IeC {\textpsi }\IeC {\ensuregreek {\acctonos \textiota }}\IeC {\textalpha } \IeC {\textepsilon }\IeC {\textnu }\IeC {\texttau }\IeC {\textrho }\IeC {\textomicron }\IeC {\textpi }\IeC {\ensuregreek {\acctonos \textiota }}\IeC {\textalpha }\IeC {\textvarsigma }}{26}}
\citation{Settles2012}
\citation{tong2001support}
\@writefile{toc}{\contentsline {section}{\numberline {4.2}\IeC {\textAlpha }\IeC {\textnu }\IeC {\textalpha }\IeC {\textzeta }\IeC {\ensuregreek {\acctonos \texteta }}\IeC {\texttau }\IeC {\texteta }\IeC {\textsigma }\IeC {\texteta } \IeC {\textsigma }\IeC {\texttau }\IeC {\textomicron }\IeC {\textnu } \IeC {\textchi }\IeC {\ensuregreek {\acctonos \textomega }}\IeC {\textrho }\IeC {\textomicron } \IeC {\textupsilon }\IeC {\textpi }\IeC {\textomicron }\IeC {\texttheta }\IeC {\ensuregreek {\acctonos \textepsilon }}\IeC {\textsigma }\IeC {\textepsilon }\IeC {\textomega }\IeC {\textnu }}{27}}
\citation{kremer2014active}
\citation{Geogebra.Lacoste}
\citation{tong2001support}
\citation{Geogebra.Lacoste}
\citation{tong2001support}
\citation{tong2001support}
\select@language{greek}
\@writefile{toc}{\select@language{greek}}
\@writefile{lof}{\select@language{greek}}
\@writefile{lot}{\select@language{greek}}
\select@language{greek}
\@writefile{toc}{\select@language{greek}}
\@writefile{lof}{\select@language{greek}}
\@writefile{lot}{\select@language{greek}}
\@writefile{lof}{\contentsline {figure}{\numberline {4.1}{\ignorespaces \IeC {\textMu }\IeC {\textepsilon } \IeC {\textkappa }\IeC {\ensuregreek {\acctonos \textomicron }}\IeC {\textkappa }\IeC {\textkappa }\IeC {\textiota }\IeC {\textnu }\IeC {\textomicron } \IeC {\textchi }\IeC {\textrho }\IeC {\ensuregreek {\acctonos \textomega }}\IeC {\textmu }\IeC {\textalpha } \IeC {\textphi }\IeC {\textalpha }\IeC {\ensuregreek {\acctonos \textiota }}\IeC {\textnu }\IeC {\textepsilon }\IeC {\texttau }\IeC {\textalpha }\IeC {\textiota } \IeC {\textomicron } \IeC {\textchi }\IeC {\ensuregreek {\acctonos \textomega }}\IeC {\textrho }\IeC {\textomicron }\IeC {\textvarsigma } \IeC {\texttau }\IeC {\textomega }\IeC {\textnu } \IeC {\textupsilon }\IeC {\textpi }\IeC {\textomicron }\IeC {\texttheta }\IeC {\ensuregreek {\acctonos \textepsilon }}\IeC {\textsigma }\IeC {\textepsilon }\IeC {\textomega }\IeC {\textnu }, \IeC {\textepsilon }\IeC {\textnu }\IeC {\ensuregreek {\acctonos \textomega }} \IeC {\textmu }\IeC {\textepsilon } \IeC {\textpi }\IeC {\textrho }\IeC {\ensuregreek {\acctonos \textalpha }}\IeC {\textsigma }\IeC {\textiota }\IeC {\textnu }\IeC {\textomicron } \IeC {\ensuregreek {\acctonos \textepsilon }}\IeC {\textnu }\IeC {\textalpha }\IeC {\textvarsigma } \IeC {\textkappa }\IeC {\textalpha }\IeC {\texttau }\IeC {\texteta }\IeC {\textgamma }\IeC {\textomicron }\IeC {\textrho }\IeC {\textiota }\IeC {\textomicron }\IeC {\textpi }\IeC {\textomicron }\IeC {\textiota }\IeC {\texteta }\IeC {\texttau }\IeC {\ensuregreek {\acctonos \texteta }}\IeC {\textvarsigma } \foreignlanguage  {english}{SVM}. \IeC {\textTau }\IeC {\textalpha } \IeC {\textupsilon }\IeC {\textpi }\IeC {\textepsilon }\IeC {\textrho }\IeC {\textepsilon }\IeC {\textpi }\IeC {\ensuregreek {\acctonos \textiota }}\IeC {\textpi }\IeC {\textepsilon }\IeC {\textdelta }\IeC {\textalpha } \IeC {\textalpha }\IeC {\textnu }\IeC {\texttau }\IeC {\textiota }\IeC {\textsigma }\IeC {\texttau }\IeC {\textomicron }\IeC {\textiota }\IeC {\textchi }\IeC {\textomicron }\IeC {\ensuregreek {\acctonos \textupsilon }}\IeC {\textnu } \IeC {\texttau }\IeC {\textomicron } \IeC {\textkappa }\IeC {\textalpha }\IeC {\texttheta }\IeC {\ensuregreek {\acctonos \textepsilon }}\IeC {\textnu }\IeC {\textalpha } \IeC {\textsigma }\IeC {\textepsilon } \IeC {\ensuregreek {\acctonos \textepsilon }}\IeC {\textnu }\IeC {\textalpha } \IeC {\textepsilon }\IeC {\texttau }\IeC {\textiota }\IeC {\textkappa }\IeC {\textepsilon }\IeC {\texttau }\IeC {\textomicron }\IeC {\textpi }\IeC {\textomicron }\IeC {\textiota }\IeC {\texteta }\IeC {\textmu }\IeC {\ensuregreek {\acctonos \textepsilon }}\IeC {\textnu }\IeC {\textomicron } \IeC {\textsigma }\IeC {\texttau }\IeC {\textiota }\IeC {\textgamma }\IeC {\textmu }\IeC {\textiota }\IeC {\ensuregreek {\acctonos \textomicron }}\IeC {\texttau }\IeC {\textupsilon }\IeC {\textpi }\IeC {\textomicron } \IeC {\textepsilon }\IeC {\textkappa }\IeC {\textpi }\IeC {\textalpha }\IeC {\ensuregreek {\acctonos \textiota }}\IeC {\textdelta }\IeC {\textepsilon }\IeC {\textupsilon }\IeC {\textsigma }\IeC {\texteta }\IeC {\textvarsigma } \IeC {\textkappa }\IeC {\textalpha }\IeC {\textiota } \IeC {\textchi }\IeC {\textomega }\IeC {\textrho }\IeC {\ensuregreek {\acctonos \textiota }}\IeC {\textzeta }\IeC {\textomicron }\IeC {\textupsilon }\IeC {\textnu } \IeC {\texttau }\IeC {\textomicron }\IeC {\textnu } \IeC {\textchi }\IeC {\ensuregreek {\acctonos \textomega }}\IeC {\textrho }\IeC {\textomicron } \IeC {\texttau }\IeC {\textomega }\IeC {\textnu } \IeC {\textupsilon }\IeC {\textpi }\IeC {\textomicron }\IeC {\texttheta }\IeC {\ensuregreek {\acctonos \textepsilon }}\IeC {\textsigma }\IeC {\textepsilon }\IeC {\textomega }\IeC {\textnu } \IeC {\textsigma }\IeC {\texttau }\IeC {\textalpha } \IeC {\texttau }\IeC {\ensuregreek {\acctonos \textepsilon }}\IeC {\textsigma }\IeC {\textsigma }\IeC {\textepsilon }\IeC {\textrho }\IeC {\textalpha }. \IeC {\textOmicron } \IeC {\textchi }\IeC {\ensuregreek {\acctonos \textomega }}\IeC {\textrho }\IeC {\textomicron }\IeC {\textvarsigma } \IeC {\texttau }\IeC {\textomega }\IeC {\textnu } \IeC {\textpi }\IeC {\textepsilon }\IeC {\textrho }\IeC {\textiota }\IeC {\textpi }\IeC {\texttau }\IeC {\ensuregreek {\acctonos \textomega }}\IeC {\textsigma }\IeC {\textepsilon }\IeC {\textomega }\IeC {\textnu } \IeC {\textepsilon }\IeC {\ensuregreek {\acctonos \textiota }}\IeC {\textnu }\IeC {\textalpha }\IeC {\textiota } \IeC {\texttau }\IeC {\textomicron } \IeC {\texttau }\IeC {\textepsilon }\IeC {\texttau }\IeC {\textalpha }\IeC {\textrho }\IeC {\texttau }\IeC {\texteta }\IeC {\textmu }\IeC {\ensuregreek {\acctonos \textomicron }}\IeC {\textrho }\IeC {\textiota }\IeC {\textomicron } \IeC {\textpi }\IeC {\textomicron }\IeC {\textupsilon } \IeC {\textpi }\IeC {\textepsilon }\IeC {\textrho }\IeC {\textiota }\IeC {\ensuregreek {\acctonos \textepsilon }}\IeC {\textchi }\IeC {\textepsilon }\IeC {\textiota } \IeC {\texttau }\IeC {\textomicron }\IeC {\textnu } \IeC {\textkappa }\IeC {\textalpha }\IeC {\texttau }\IeC {\texteta }\IeC {\textgamma }\IeC {\textomicron }\IeC {\textrho }\IeC {\textiota }\IeC {\textomicron }\IeC {\textpi }\IeC {\textomicron }\IeC {\textiota }\IeC {\texteta }\IeC {\texttau }\IeC {\ensuregreek {\acctonos \texteta }} \foreignlanguage  {english}{SVM}. \cite  {Geogebra.Lacoste}, \cite  {tong2001support}.}}{28}}
\citation{Cohn1994}
\citation{Settles2012}
\@writefile{toc}{\contentsline {subsection}{\numberline {4.2.1}\IeC {\textEpsilon }\IeC {\textrho }\IeC {\ensuregreek {\acctonos \textomega }}\IeC {\texttau }\IeC {\texteta }\IeC {\textsigma }\IeC {\texteta } \IeC {\textalpha }\IeC {\textpi }\IeC {\ensuregreek {\acctonos \textomicron }} \IeC {\textdelta }\IeC {\textiota }\IeC {\textalpha }\IeC {\textphi }\IeC {\textomega }\IeC {\textnu }\IeC {\ensuregreek {\acctonos \textiota }}\IeC {\textalpha }}{29}}
\select@language{english}
\@writefile{toc}{\select@language{english}}
\@writefile{lof}{\select@language{english}}
\@writefile{lot}{\select@language{english}}
\@writefile{loa}{\contentsline {algorithm}{\numberline {4}{\ignorespaces \textgreek  {\IeC {\textAlpha }\IeC {\textlambda }\IeC {\textgamma }\IeC {\ensuregreek {\acctonos \textomicron }}\IeC {\textrho }\IeC {\textiota }\IeC {\texttheta }\IeC {\textmu }\IeC {\textomicron }\IeC {\textvarsigma } \IeC {\textgamma }\IeC {\textiota }\IeC {\textalpha }} stream based \textgreek  {\IeC {\textsigma }\IeC {\texttau }\IeC {\textrho }\IeC {\textalpha }\IeC {\texttau }\IeC {\texteta }\IeC {\textgamma }\IeC {\textiota }\IeC {\textkappa }\IeC {\ensuregreek {\acctonos \texteta }} \IeC {\textepsilon }\IeC {\textrho }\IeC {\ensuregreek {\acctonos \textomega }}\IeC {\texttau }\IeC {\texteta }\IeC {\textsigma }\IeC {\texteta }\IeC {\textvarsigma } \IeC {\textalpha }\IeC {\textpi }\IeC {\ensuregreek {\acctonos \textomicron }} \IeC {\textdelta }\IeC {\textiota }\IeC {\textalpha }\IeC {\textphi }\IeC {\textomega }\IeC {\textnu }\IeC {\ensuregreek {\acctonos \textiota }}\IeC {\textalpha }}}}{29}}
\newlabel{QBD}{{4}{29}}
\select@language{greek}
\@writefile{toc}{\select@language{greek}}
\@writefile{lof}{\select@language{greek}}
\@writefile{lot}{\select@language{greek}}
\citation{Settles2012}
\citation{Settles2012}
\select@language{greek}
\@writefile{toc}{\select@language{greek}}
\@writefile{lof}{\select@language{greek}}
\@writefile{lot}{\select@language{greek}}
\select@language{greek}
\@writefile{toc}{\select@language{greek}}
\@writefile{lof}{\select@language{greek}}
\@writefile{lot}{\select@language{greek}}
\@writefile{toc}{\contentsline {subsection}{\numberline {4.2.2}\IeC {\textEpsilon }\IeC {\textrho }\IeC {\ensuregreek {\acctonos \textomega }}\IeC {\texttau }\IeC {\texteta }\IeC {\textsigma }\IeC {\texteta } \IeC {\textalpha }\IeC {\textpi }\IeC {\ensuregreek {\acctonos \textomicron }} \IeC {\textepsilon }\IeC {\textpi }\IeC {\textiota }\IeC {\texttau }\IeC {\textrho }\IeC {\textomicron }\IeC {\textpi }\IeC {\ensuregreek {\acctonos \texteta }}}{30}}
\@writefile{toc}{\contentsline {section}{\numberline {4.3}\IeC {\textTau }\IeC {\textupsilon }\IeC {\textchi }\IeC {\textalpha }\IeC {\ensuregreek {\acctonos \textiota }}\IeC {\textalpha } \IeC {\textdelta }\IeC {\textepsilon }\IeC {\textiota }\IeC {\textgamma }\IeC {\textmu }\IeC {\textalpha }\IeC {\texttau }\IeC {\textomicron }\IeC {\textlambda }\IeC {\texteta }\IeC {\textpsi }\IeC {\ensuregreek {\acctonos \textiota }}\IeC {\textalpha }}{31}}
\@setckpt{mytex/chap4}{
\setcounter{page}{32}
\setcounter{equation}{14}
\setcounter{enumi}{2}
\setcounter{enumii}{0}
\setcounter{enumiii}{0}
\setcounter{enumiv}{0}
\setcounter{footnote}{0}
\setcounter{mpfootnote}{0}
\setcounter{parentequation}{12}
\setcounter{part}{0}
\setcounter{chapter}{4}
\setcounter{section}{3}
\setcounter{subsection}{0}
\setcounter{subsubsection}{0}
\setcounter{paragraph}{0}
\setcounter{subparagraph}{0}
\setcounter{figure}{1}
\setcounter{table}{0}
\setcounter{float@type}{16}
\setcounter{algorithm}{4}
\setcounter{ALG@line}{12}
\setcounter{ALG@rem}{0}
\setcounter{ALG@nested}{0}
\setcounter{ALG@Lnr}{2}
\setcounter{ALG@blocknr}{10}
\setcounter{ALG@storecount}{0}
\setcounter{ALG@tmpcounter}{0}
\setcounter{lstnumber}{1}
\setcounter{definition}{0}
\setcounter{proposition}{0}
\setcounter{theorem}{0}
\setcounter{corollary}{0}
\setcounter{lemma}{0}
\setcounter{example}{0}
\setcounter{remark}{0}
\setcounter{notation}{0}
\setcounter{law}{0}
\setcounter{lstlisting}{0}
}
