\relax 
\@writefile{toc}{\contentsline {chapter}{\numberline {4}\IeC {\textEpsilon }\IeC {\textmu }\IeC {\textpi }\IeC {\textepsilon }\IeC {\textiota }\IeC {\textrho }\IeC {\textiota }\IeC {\textkappa }\IeC {\ensuregreek {\acctonos \texteta }} \IeC {\textmu }\IeC {\textepsilon }\IeC {\textlambda }\IeC {\ensuregreek {\acctonos \textepsilon }}\IeC {\texttau }\IeC {\texteta }}{33}}
\@writefile{lof}{\addvspace {10\p@ }}
\@writefile{lot}{\addvspace {10\p@ }}
\@writefile{toc}{\contentsline {section}{\numberline {4.1}\IeC {\textEta } \IeC {\textbeta }\IeC {\textiota }\IeC {\textbeta }\IeC {\textlambda }\IeC {\textiota }\IeC {\textomicron }\IeC {\texttheta }\IeC {\ensuregreek {\acctonos \texteta }}\IeC {\textkappa }\IeC {\texteta } \foreignlanguage  {english}{JCLAL}}{33}}
\citation{reyes2016jclal}
\select@language{greek}
\@writefile{toc}{\select@language{greek}}
\@writefile{lof}{\select@language{greek}}
\@writefile{lot}{\select@language{greek}}
\select@language{greek}
\@writefile{toc}{\select@language{greek}}
\@writefile{lof}{\select@language{greek}}
\@writefile{lot}{\select@language{greek}}
\select@language{english}
\@writefile{toc}{\select@language{english}}
\@writefile{lof}{\select@language{english}}
\@writefile{lot}{\select@language{english}}
\select@language{greek}
\@writefile{toc}{\select@language{greek}}
\@writefile{lof}{\select@language{greek}}
\@writefile{lot}{\select@language{greek}}
\select@language{english}
\@writefile{toc}{\select@language{english}}
\@writefile{lof}{\select@language{english}}
\@writefile{lot}{\select@language{english}}
\select@language{greek}
\@writefile{toc}{\select@language{greek}}
\@writefile{lof}{\select@language{greek}}
\@writefile{lot}{\select@language{greek}}
\@writefile{toc}{\contentsline {section}{\numberline {4.2}\IeC {\textDelta }\IeC {\textepsilon }\IeC {\textdelta }\IeC {\textomicron }\IeC {\textmu }\IeC {\ensuregreek {\acctonos \textepsilon }}\IeC {\textnu }\IeC {\textalpha }}{34}}
\newlabel{my-label}{{4.2}{35}}
\@writefile{lot}{\contentsline {table}{\numberline {4.1}{\ignorespaces \IeC {\textChi }\IeC {\textalpha }\IeC {\textrho }\IeC {\textalpha }\IeC {\textkappa }\IeC {\texttau }\IeC {\texteta }\IeC {\textrho }\IeC {\textiota }\IeC {\textsigma }\IeC {\texttau }\IeC {\textiota }\IeC {\textkappa }\IeC {\ensuregreek {\acctonos \textalpha }} \IeC {\texttau }\IeC {\textomega }\IeC {\textnu } \IeC {\textdelta }\IeC {\textepsilon }\IeC {\textdelta }\IeC {\textomicron }\IeC {\textmu }\IeC {\ensuregreek {\acctonos \textepsilon }}\IeC {\textnu }\IeC {\textomega }\IeC {\textnu }}}{35}}
\@writefile{toc}{\contentsline {section}{\numberline {4.3}\IeC {\textPi }\IeC {\textepsilon }\IeC {\textiota }\IeC {\textrho }\IeC {\textalpha }\IeC {\textmu }\IeC {\textalpha }\IeC {\texttau }\IeC {\textiota }\IeC {\textkappa }\IeC {\ensuregreek {\acctonos \texteta }} \IeC {\textdelta }\IeC {\textiota }\IeC {\textalpha }\IeC {\textdelta }\IeC {\textiota }\IeC {\textkappa }\IeC {\textalpha }\IeC {\textsigma }\IeC {\ensuregreek {\acctonos \textiota }}\IeC {\textalpha }}{35}}
\select@language{english}
\@writefile{toc}{\select@language{english}}
\@writefile{lof}{\select@language{english}}
\@writefile{lot}{\select@language{english}}
\select@language{greek}
\@writefile{toc}{\select@language{greek}}
\@writefile{lof}{\select@language{greek}}
\@writefile{lot}{\select@language{greek}}
\select@language{greek}
\@writefile{toc}{\select@language{greek}}
\@writefile{lof}{\select@language{greek}}
\@writefile{lot}{\select@language{greek}}
\select@language{greek}
\@writefile{toc}{\select@language{greek}}
\@writefile{lof}{\select@language{greek}}
\@writefile{lot}{\select@language{greek}}
\@writefile{toc}{\contentsline {subsection}{\numberline {4.3.1}\IeC {\textTau }\IeC {\textepsilon }\IeC {\textchi }\IeC {\textnu }\IeC {\textiota }\IeC {\textkappa }\IeC {\ensuregreek {\acctonos \textepsilon }}\IeC {\textvarsigma } \IeC {\textlambda }\IeC {\textepsilon }\IeC {\textpi }\IeC {\texttau }\IeC {\textomicron }\IeC {\textmu }\IeC {\ensuregreek {\acctonos \textepsilon }}\IeC {\textrho }\IeC {\textepsilon }\IeC {\textiota }\IeC {\textepsilon }\IeC {\textvarsigma }}{36}}
\@writefile{toc}{\contentsline {subsection}{\numberline {4.3.2}\IeC {\textAlpha }\IeC {\textpi }\IeC {\textomicron }\IeC {\texttau }\IeC {\textepsilon }\IeC {\textlambda }\IeC {\ensuregreek {\acctonos \textepsilon }}\IeC {\textsigma }\IeC {\textmu }\IeC {\textalpha }\IeC {\texttau }\IeC {\textalpha }}{37}}
\select@language{english}
\@writefile{toc}{\select@language{english}}
\@writefile{lof}{\select@language{english}}
\@writefile{lot}{\select@language{english}}
\newlabel{anneal}{{4.3.2}{37}}
\@writefile{lot}{\contentsline {table}{\numberline {4.2}{\ignorespaces \foreignlanguage  {english}{anneal.arff}}}{37}}
\newlabel{audiology}{{4.3.2}{37}}
\@writefile{lot}{\contentsline {table}{\numberline {4.3}{\ignorespaces \foreignlanguage  {english}{audiology.arff}}}{37}}
\newlabel{colic}{{4.3.2}{37}}
\@writefile{lot}{\contentsline {table}{\numberline {4.4}{\ignorespaces \foreignlanguage  {english}{colic.arff}}}{37}}
\select@language{greek}
\@writefile{toc}{\select@language{greek}}
\@writefile{lof}{\select@language{greek}}
\@writefile{lot}{\select@language{greek}}
\select@language{greek}
\@writefile{toc}{\select@language{greek}}
\@writefile{lof}{\select@language{greek}}
\@writefile{lot}{\select@language{greek}}
\newlabel{credit-g}{{4.3.2}{38}}
\@writefile{lot}{\contentsline {table}{\numberline {4.5}{\ignorespaces \foreignlanguage  {english}{credit-g.arff}}}{38}}
\newlabel{diabetes}{{4.3.2}{38}}
\@writefile{lot}{\contentsline {table}{\numberline {4.6}{\ignorespaces \foreignlanguage  {english}{diabetes.arff}}}{38}}
\newlabel{ionosphere}{{4.3.2}{38}}
\@writefile{lot}{\contentsline {table}{\numberline {4.7}{\ignorespaces \foreignlanguage  {english}{ionosphere.arff}}}{38}}
\newlabel{kr-vs-kp}{{4.3.2}{38}}
\@writefile{lot}{\contentsline {table}{\numberline {4.8}{\ignorespaces \foreignlanguage  {english}{kr-vs-kp.arff}}}{38}}
\newlabel{mushroom}{{4.3.2}{39}}
\@writefile{lot}{\contentsline {table}{\numberline {4.9}{\ignorespaces \foreignlanguage  {english}{mushroom.arff}}}{39}}
\newlabel{segment}{{4.3.2}{39}}
\@writefile{lot}{\contentsline {table}{\numberline {4.10}{\ignorespaces \foreignlanguage  {english}{segment.arff}}}{39}}
\newlabel{sonar}{{4.3.2}{39}}
\@writefile{lot}{\contentsline {table}{\numberline {4.11}{\ignorespaces \foreignlanguage  {english}{sonar.arff}}}{39}}
\newlabel{soybean}{{4.3.2}{39}}
\@writefile{lot}{\contentsline {table}{\numberline {4.12}{\ignorespaces \foreignlanguage  {english}{soybean.arff}}}{39}}
\select@language{greek}
\@writefile{toc}{\select@language{greek}}
\@writefile{lof}{\select@language{greek}}
\@writefile{lot}{\select@language{greek}}
\select@language{greek}
\@writefile{toc}{\select@language{greek}}
\@writefile{lof}{\select@language{greek}}
\@writefile{lot}{\select@language{greek}}
\newlabel{splice}{{4.3.2}{40}}
\@writefile{lot}{\contentsline {table}{\numberline {4.13}{\ignorespaces \foreignlanguage  {english}{splice.arff}}}{40}}
\newlabel{vehicle}{{4.3.2}{40}}
\@writefile{lot}{\contentsline {table}{\numberline {4.14}{\ignorespaces \foreignlanguage  {english}{vehicle.arff}}}{40}}
\newlabel{vote}{{4.3.2}{40}}
\@writefile{lot}{\contentsline {table}{\numberline {4.15}{\ignorespaces \foreignlanguage  {english}{vote.arff}}}{40}}
\newlabel{vowel}{{4.3.2}{40}}
\@writefile{lot}{\contentsline {table}{\numberline {4.16}{\ignorespaces \foreignlanguage  {english}{vowel.arff}}}{40}}
\newlabel{waveform5000}{{4.3.2}{41}}
\@writefile{lot}{\contentsline {table}{\numberline {4.17}{\ignorespaces \foreignlanguage  {english}{waveform5000.arff}}}{41}}
\select@language{greek}
\@writefile{toc}{\select@language{greek}}
\@writefile{lof}{\select@language{greek}}
\@writefile{lot}{\select@language{greek}}
\select@language{english}
\@writefile{toc}{\select@language{english}}
\@writefile{lof}{\select@language{english}}
\@writefile{lot}{\select@language{english}}
\select@language{greek}
\@writefile{toc}{\select@language{greek}}
\@writefile{lof}{\select@language{greek}}
\@writefile{lot}{\select@language{greek}}
\@writefile{lof}{\contentsline {figure}{\numberline {4.1}{\ignorespaces \IeC {\textOmicron }\IeC {\textiota } \IeC {\textkappa }\IeC {\textalpha }\IeC {\textmu }\IeC {\textpi }\IeC {\ensuregreek {\acctonos \textupsilon }}\IeC {\textlambda }\IeC {\textepsilon }\IeC {\textvarsigma } \IeC {\textmu }\IeC {\ensuregreek {\acctonos \textalpha }}\IeC {\texttheta }\IeC {\texteta }\IeC {\textsigma }\IeC {\texteta }\IeC {\textvarsigma } \IeC {\textgamma }\IeC {\textiota }\IeC {\textalpha } \IeC {\texttau }\IeC {\textomicron }\IeC {\textnu } \IeC {\textmu }\IeC {\textalpha }\IeC {\texttheta }\IeC {\texteta }\IeC {\texttau }\IeC {\ensuregreek {\acctonos \texteta }} \foreignlanguage  {english}{Random Forest} \IeC {\textgamma }\IeC {\textiota }\IeC {\textalpha } \IeC {\texttau }\IeC {\textomicron } \IeC {\textsigma }\IeC {\ensuregreek {\acctonos \textupsilon }}\IeC {\textnu }\IeC {\textomicron }\IeC {\textlambda }\IeC {\textomicron } \IeC {\textdelta }\IeC {\textepsilon }\IeC {\textdelta }\IeC {\textomicron }\IeC {\textmu }\IeC {\ensuregreek {\acctonos \textepsilon }}\IeC {\textnu }\IeC {\textomega }\IeC {\textnu } \foreignlanguage  {english}{anneal.arff}. \IeC {\textMu }\IeC {\textepsilon } \IeC {\textmu }\IeC {\textpi }\IeC {\textlambda }\IeC {\textepsilon } \IeC {\textsigma }\IeC {\textupsilon }\IeC {\textnu }\IeC {\textepsilon }\IeC {\textchi }\IeC {\ensuregreek {\acctonos \textomicron }}\IeC {\textmu }\IeC {\textepsilon }\IeC {\textnu }\IeC {\texteta } \IeC {\textgamma }\IeC {\textrho }\IeC {\textalpha }\IeC {\textmu }\IeC {\textmu }\IeC {\ensuregreek {\acctonos \texteta }} \IeC {\textpi }\IeC {\textalpha }\IeC {\textrho }\IeC {\textiota }\IeC {\textsigma }\IeC {\texttau }\IeC {\ensuregreek {\acctonos \textalpha }}\IeC {\textnu }\IeC {\textepsilon }\IeC {\texttau }\IeC {\textalpha }\IeC {\textiota } \IeC {\texteta } \IeC {\textsigma }\IeC {\texttau }\IeC {\textrho }\IeC {\textalpha }\IeC {\texttau }\IeC {\texteta }\IeC {\textgamma }\IeC {\textiota }\IeC {\textkappa }\IeC {\ensuregreek {\acctonos \texteta }} \foreignlanguage  {english}{Random Sampling}, \IeC {\textmu }\IeC {\textepsilon } \IeC {\textkappa }\IeC {\ensuregreek {\acctonos \textomicron }}\IeC {\textkappa }\IeC {\textkappa }\IeC {\textiota }\IeC {\textnu }\IeC {\texteta } \IeC {\textgamma }\IeC {\textrho }\IeC {\textalpha }\IeC {\textmu }\IeC {\textmu }\IeC {\ensuregreek {\acctonos \texteta }} \IeC {\texteta } \foreignlanguage  {english}{Kullback}, \IeC {\textmu }\IeC {\textepsilon } \IeC {\textmu }\IeC {\textalpha }\IeC {\ensuregreek {\acctonos \textupsilon }}\IeC {\textrho }\IeC {\texteta } \IeC {\texteta } \foreignlanguage  {english}{Vote Entropy}, \IeC {\textkappa }\IeC {\textalpha }\IeC {\textiota } \IeC {\textmu }\IeC {\textepsilon } \IeC {\textdelta }\IeC {\textiota }\IeC {\textalpha }\IeC {\textkappa }\IeC {\textepsilon }\IeC {\textkappa }\IeC {\textomicron }\IeC {\textmu }\IeC {\textmu }\IeC {\ensuregreek {\acctonos \textepsilon }}\IeC {\textnu }\IeC {\texteta } \IeC {\textkappa }\IeC {\ensuregreek {\acctonos \textomicron }}\IeC {\textkappa }\IeC {\textkappa }\IeC {\textiota }\IeC {\textnu }\IeC {\texteta }, \IeC {\textmu }\IeC {\textpi }\IeC {\textlambda }\IeC {\textepsilon }, \IeC {\textpi }\IeC {\textrho }\IeC {\ensuregreek {\acctonos \textalpha }}\IeC {\textsigma }\IeC {\textiota }\IeC {\textnu }\IeC {\texteta } \IeC {\textalpha }\IeC {\textnu }\IeC {\texttau }\IeC {\ensuregreek {\acctonos \textiota }}\IeC {\textsigma }\IeC {\texttau }\IeC {\textomicron }\IeC {\textiota }\IeC {\textchi }\IeC {\textalpha } \IeC {\textomicron }\IeC {\textiota } \foreignlanguage  {english}{Entropy sampling, Least Confident, Margin Sampling}.}}{41}}
\select@language{greek}
\@writefile{toc}{\select@language{greek}}
\@writefile{lof}{\select@language{greek}}
\@writefile{lot}{\select@language{greek}}
\select@language{greek}
\@writefile{toc}{\select@language{greek}}
\@writefile{lof}{\select@language{greek}}
\@writefile{lot}{\select@language{greek}}
\@writefile{lof}{\contentsline {figure}{\numberline {4.2}{\ignorespaces \IeC {\textOmicron }\IeC {\textiota } \IeC {\textkappa }\IeC {\textalpha }\IeC {\textmu }\IeC {\textpi }\IeC {\ensuregreek {\acctonos \textupsilon }}\IeC {\textlambda }\IeC {\textepsilon }\IeC {\textvarsigma } \IeC {\textmu }\IeC {\ensuregreek {\acctonos \textalpha }}\IeC {\texttheta }\IeC {\texteta }\IeC {\textsigma }\IeC {\texteta }\IeC {\textvarsigma } \IeC {\textgamma }\IeC {\textiota }\IeC {\textalpha } \IeC {\texttau }\IeC {\textomicron }\IeC {\textnu } \IeC {\textmu }\IeC {\textalpha }\IeC {\texttheta }\IeC {\texteta }\IeC {\texttau }\IeC {\ensuregreek {\acctonos \texteta }} \foreignlanguage  {english}{Random Forest} \IeC {\textgamma }\IeC {\textiota }\IeC {\textalpha } \IeC {\texttau }\IeC {\textomicron } \IeC {\textsigma }\IeC {\ensuregreek {\acctonos \textupsilon }}\IeC {\textnu }\IeC {\textomicron }\IeC {\textlambda }\IeC {\textomicron } \IeC {\textdelta }\IeC {\textepsilon }\IeC {\textdelta }\IeC {\textomicron }\IeC {\textmu }\IeC {\ensuregreek {\acctonos \textepsilon }}\IeC {\textnu }\IeC {\textomega }\IeC {\textnu } \foreignlanguage  {english}{segment.arff}. \IeC {\textEta } \IeC {\textalpha }\IeC {\textnu }\IeC {\texttau }\IeC {\textiota }\IeC {\textsigma }\IeC {\texttau }\IeC {\textomicron }\IeC {\textiota }\IeC {\textchi }\IeC {\ensuregreek {\acctonos \textiota }}\IeC {\textalpha } \IeC {\textchi }\IeC {\textrho }\IeC {\textomega }\IeC {\textmu }\IeC {\ensuregreek {\acctonos \textalpha }}\IeC {\texttau }\IeC {\textomega }\IeC {\textnu } \IeC {\textkappa }\IeC {\textalpha }\IeC {\textiota } \IeC {\textsigma }\IeC {\texttau }\IeC {\textrho }\IeC {\textalpha }\IeC {\texttau }\IeC {\texteta }\IeC {\textgamma }\IeC {\textiota }\IeC {\textkappa }\IeC {\ensuregreek {\acctonos \textomega }}\IeC {\textnu } \IeC {\ensuregreek {\acctonos \textomicron }}\IeC {\textmu }\IeC {\textomicron }\IeC {\textiota }\IeC {\textalpha } \IeC {\textmu }\IeC {\textepsilon } \IeC {\textpi }\IeC {\textrho }\IeC {\textiota }\IeC {\textnu }.}}{42}}
\@writefile{lof}{\contentsline {figure}{\numberline {4.3}{\ignorespaces \IeC {\textOmicron }\IeC {\textiota } \IeC {\textkappa }\IeC {\textalpha }\IeC {\textmu }\IeC {\textpi }\IeC {\ensuregreek {\acctonos \textupsilon }}\IeC {\textlambda }\IeC {\textepsilon }\IeC {\textvarsigma } \IeC {\textmu }\IeC {\ensuregreek {\acctonos \textalpha }}\IeC {\texttheta }\IeC {\texteta }\IeC {\textsigma }\IeC {\texteta }\IeC {\textvarsigma } \IeC {\textgamma }\IeC {\textiota }\IeC {\textalpha } \IeC {\texttau }\IeC {\textomicron }\IeC {\textnu } \IeC {\textmu }\IeC {\textalpha }\IeC {\texttheta }\IeC {\texteta }\IeC {\texttau }\IeC {\ensuregreek {\acctonos \texteta }} \foreignlanguage  {english}{J48} \IeC {\textgamma }\IeC {\textiota }\IeC {\textalpha } \IeC {\texttau }\IeC {\textomicron } \IeC {\textsigma }\IeC {\ensuregreek {\acctonos \textupsilon }}\IeC {\textnu }\IeC {\textomicron }\IeC {\textlambda }\IeC {\textomicron } \IeC {\textdelta }\IeC {\textepsilon }\IeC {\textdelta }\IeC {\textomicron }\IeC {\textmu }\IeC {\ensuregreek {\acctonos \textepsilon }}\IeC {\textnu }\IeC {\textomega }\IeC {\textnu } \foreignlanguage  {english}{segment.arff}. \IeC {\textEta } \IeC {\textalpha }\IeC {\textnu }\IeC {\texttau }\IeC {\textiota }\IeC {\textsigma }\IeC {\texttau }\IeC {\textomicron }\IeC {\textiota }\IeC {\textchi }\IeC {\ensuregreek {\acctonos \textiota }}\IeC {\textalpha } \IeC {\textchi }\IeC {\textrho }\IeC {\textomega }\IeC {\textmu }\IeC {\ensuregreek {\acctonos \textalpha }}\IeC {\texttau }\IeC {\textomega }\IeC {\textnu } \IeC {\textkappa }\IeC {\textalpha }\IeC {\textiota } \IeC {\textsigma }\IeC {\texttau }\IeC {\textrho }\IeC {\textalpha }\IeC {\texttau }\IeC {\texteta }\IeC {\textgamma }\IeC {\textiota }\IeC {\textkappa }\IeC {\ensuregreek {\acctonos \textomega }}\IeC {\textnu } \IeC {\ensuregreek {\acctonos \textomicron }}\IeC {\textmu }\IeC {\textomicron }\IeC {\textiota }\IeC {\textalpha } \IeC {\textmu }\IeC {\textepsilon } \IeC {\textpi }\IeC {\textrho }\IeC {\textiota }\IeC {\textnu }.}}{42}}
\@writefile{lof}{\contentsline {figure}{\numberline {4.4}{\ignorespaces \IeC {\textOmicron }\IeC {\textiota } \IeC {\textkappa }\IeC {\textalpha }\IeC {\textmu }\IeC {\textpi }\IeC {\ensuregreek {\acctonos \textupsilon }}\IeC {\textlambda }\IeC {\textepsilon }\IeC {\textvarsigma } \IeC {\textmu }\IeC {\ensuregreek {\acctonos \textalpha }}\IeC {\texttheta }\IeC {\texteta }\IeC {\textsigma }\IeC {\texteta }\IeC {\textvarsigma } \IeC {\textgamma }\IeC {\textiota }\IeC {\textalpha } \IeC {\texttau }\IeC {\textomicron }\IeC {\textnu } \IeC {\textmu }\IeC {\textalpha }\IeC {\texttheta }\IeC {\texteta }\IeC {\texttau }\IeC {\ensuregreek {\acctonos \texteta }} \foreignlanguage  {english}{SMOsync} \IeC {\textgamma }\IeC {\textiota }\IeC {\textalpha } \IeC {\texttau }\IeC {\textomicron } \IeC {\textsigma }\IeC {\ensuregreek {\acctonos \textupsilon }}\IeC {\textnu }\IeC {\textomicron }\IeC {\textlambda }\IeC {\textomicron } \IeC {\textdelta }\IeC {\textepsilon }\IeC {\textdelta }\IeC {\textomicron }\IeC {\textmu }\IeC {\ensuregreek {\acctonos \textepsilon }}\IeC {\textnu }\IeC {\textomega }\IeC {\textnu } \foreignlanguage  {english}{soybean.arff}. \IeC {\textEta } \IeC {\textalpha }\IeC {\textnu }\IeC {\texttau }\IeC {\textiota }\IeC {\textsigma }\IeC {\texttau }\IeC {\textomicron }\IeC {\textiota }\IeC {\textchi }\IeC {\ensuregreek {\acctonos \textiota }}\IeC {\textalpha } \IeC {\textchi }\IeC {\textrho }\IeC {\textomega }\IeC {\textmu }\IeC {\ensuregreek {\acctonos \textalpha }}\IeC {\texttau }\IeC {\textomega }\IeC {\textnu } \IeC {\textkappa }\IeC {\textalpha }\IeC {\textiota } \IeC {\textsigma }\IeC {\texttau }\IeC {\textrho }\IeC {\textalpha }\IeC {\texttau }\IeC {\texteta }\IeC {\textgamma }\IeC {\textiota }\IeC {\textkappa }\IeC {\ensuregreek {\acctonos \textomega }}\IeC {\textnu } \IeC {\ensuregreek {\acctonos \textomicron }}\IeC {\textmu }\IeC {\textomicron }\IeC {\textiota }\IeC {\textalpha } \IeC {\textmu }\IeC {\textepsilon } \IeC {\textpi }\IeC {\textrho }\IeC {\textiota }\IeC {\textnu }.}}{43}}
\@writefile{lof}{\contentsline {figure}{\numberline {4.5}{\ignorespaces \IeC {\textOmicron }\IeC {\textiota } \IeC {\textkappa }\IeC {\textalpha }\IeC {\textmu }\IeC {\textpi }\IeC {\ensuregreek {\acctonos \textupsilon }}\IeC {\textlambda }\IeC {\textepsilon }\IeC {\textvarsigma } \IeC {\textmu }\IeC {\ensuregreek {\acctonos \textalpha }}\IeC {\texttheta }\IeC {\texteta }\IeC {\textsigma }\IeC {\texteta }\IeC {\textvarsigma } \IeC {\textgamma }\IeC {\textiota }\IeC {\textalpha } \IeC {\texttau }\IeC {\textomicron }\IeC {\textnu } \IeC {\textmu }\IeC {\textalpha }\IeC {\texttheta }\IeC {\texteta }\IeC {\texttau }\IeC {\ensuregreek {\acctonos \texteta }} \foreignlanguage  {english}{J48} \IeC {\textgamma }\IeC {\textiota }\IeC {\textalpha } \IeC {\texttau }\IeC {\textomicron } \IeC {\textsigma }\IeC {\ensuregreek {\acctonos \textupsilon }}\IeC {\textnu }\IeC {\textomicron }\IeC {\textlambda }\IeC {\textomicron } \IeC {\textdelta }\IeC {\textepsilon }\IeC {\textdelta }\IeC {\textomicron }\IeC {\textmu }\IeC {\ensuregreek {\acctonos \textepsilon }}\IeC {\textnu }\IeC {\textomega }\IeC {\textnu } \foreignlanguage  {english}{kr-vs-kp.arff}. \IeC {\textOmicron }\IeC {\textiota } \IeC {\textsigma }\IeC {\texttau }\IeC {\textrho }\IeC {\textalpha }\IeC {\texttau }\IeC {\texteta }\IeC {\textgamma }\IeC {\textiota }\IeC {\textkappa }\IeC {\ensuregreek {\acctonos \textepsilon }}\IeC {\textvarsigma } \foreignlanguage  {english}{Entropy sampling, Least Confident, Margin Sampling} \IeC {\textsigma }\IeC {\textupsilon }\IeC {\textmu }\IeC {\textpi }\IeC {\ensuregreek {\acctonos \textiota }}\IeC {\textpi }\IeC {\texttau }\IeC {\textomicron }\IeC {\textupsilon }\IeC {\textnu } \IeC {\textkappa }\IeC {\textalpha }\IeC {\textiota } \IeC {\textalpha }\IeC {\textnu }\IeC {\texttau }\IeC {\textiota }\IeC {\textsigma }\IeC {\texttau }\IeC {\textomicron }\IeC {\textiota }\IeC {\textchi }\IeC {\textomicron }\IeC {\ensuregreek {\acctonos \textupsilon }}\IeC {\textnu } \IeC {\textsigma }\IeC {\texttau }\IeC {\texteta }\IeC {\textnu } \IeC {\textkappa }\IeC {\ensuregreek {\acctonos \textomicron }}\IeC {\textkappa }\IeC {\textkappa }\IeC {\textiota }\IeC {\textnu }\IeC {\texteta } \IeC {\textdelta }\IeC {\textiota }\IeC {\textalpha }\IeC {\textkappa }\IeC {\textepsilon }\IeC {\textkappa }\IeC {\textomicron }\IeC {\textmu }\IeC {\textmu }\IeC {\ensuregreek {\acctonos \textepsilon }}\IeC {\textnu }\IeC {\texteta } \IeC {\textgamma }\IeC {\textrho }\IeC {\textalpha }\IeC {\textmu }\IeC {\textmu }\IeC {\ensuregreek {\acctonos \texteta }}, \IeC {\texttau }\IeC {\textalpha } \IeC {\texttau }\IeC {\textrho }\IeC {\ensuregreek {\acctonos \textiota }}\IeC {\textgamma }\IeC {\textomega }\IeC {\textnu }\IeC {\textalpha } \IeC {\textkappa }\IeC {\textalpha }\IeC {\textiota } \IeC {\texttau }\IeC {\textalpha } \IeC {\textalpha }\IeC {\textsigma }\IeC {\texttau }\IeC {\ensuregreek {\acctonos \textepsilon }}\IeC {\textrho }\IeC {\textiota }\IeC {\textalpha }. \IeC {\textOmicron }\IeC {\textiota } \IeC {\ensuregreek {\acctonos \textalpha }}\IeC {\textlambda }\IeC {\textlambda }\IeC {\textepsilon }\IeC {\textvarsigma } \IeC {\texttau }\IeC {\textrho }\IeC {\textepsilon }\IeC {\textiota }\IeC {\textvarsigma } \IeC {\textsigma }\IeC {\texttau }\IeC {\textrho }\IeC {\textalpha }\IeC {\texttau }\IeC {\texteta }\IeC {\textgamma }\IeC {\textiota }\IeC {\textkappa }\IeC {\ensuregreek {\acctonos \textepsilon }}\IeC {\textvarsigma } \IeC {\textalpha }\IeC {\textnu }\IeC {\texttau }\IeC {\textiota }\IeC {\textsigma }\IeC {\texttau }\IeC {\textomicron }\IeC {\textiota }\IeC {\textchi }\IeC {\textomicron }\IeC {\ensuregreek {\acctonos \textupsilon }}\IeC {\textnu } \IeC {\textsigma }\IeC {\texttau }\IeC {\textalpha } \IeC {\ensuregreek {\acctonos \textiota }}\IeC {\textdelta }\IeC {\textiota }\IeC {\textalpha } \IeC {\textchi }\IeC {\textrho }\IeC {\ensuregreek {\acctonos \textomega }}\IeC {\textmu }\IeC {\textalpha }\IeC {\texttau }\IeC {\textalpha } \IeC {\textmu }\IeC {\textepsilon } \IeC {\textpi }\IeC {\textrho }\IeC {\textiota }\IeC {\textnu }.}}{43}}
\citation{garcia2008extension}
\select@language{greek}
\@writefile{toc}{\select@language{greek}}
\@writefile{lof}{\select@language{greek}}
\@writefile{lot}{\select@language{greek}}
\select@language{greek}
\@writefile{toc}{\select@language{greek}}
\@writefile{lof}{\select@language{greek}}
\@writefile{lot}{\select@language{greek}}
\@writefile{toc}{\contentsline {section}{\numberline {4.4}\IeC {\textAlpha }\IeC {\textnu }\IeC {\ensuregreek {\acctonos \textalpha }}\IeC {\textlambda }\IeC {\textupsilon }\IeC {\textsigma }\IeC {\texteta } \IeC {\textalpha }\IeC {\textpi }\IeC {\textomicron }\IeC {\texttau }\IeC {\textepsilon }\IeC {\textlambda }\IeC {\textepsilon }\IeC {\textsigma }\IeC {\textmu }\IeC {\ensuregreek {\acctonos \textalpha }}\IeC {\texttau }\IeC {\textomega }\IeC {\textnu }}{44}}
\select@language{english}
\@writefile{toc}{\select@language{english}}
\@writefile{lof}{\select@language{english}}
\@writefile{lot}{\select@language{english}}
\@writefile{lot}{\contentsline {table}{\numberline {4.18}{\ignorespaces \textgreek  {\IeC {\textSigma }\IeC {\textkappa }\IeC {\textomicron }\IeC {\textrho } \IeC {\textkappa }\IeC {\ensuregreek {\acctonos \textalpha }}\IeC {\texttheta }\IeC {\textepsilon } \IeC {\textsigma }\IeC {\texttau }\IeC {\textrho }\IeC {\textalpha }\IeC {\texttau }\IeC {\texteta }\IeC {\textgamma }\IeC {\textiota }\IeC {\textkappa }\IeC {\ensuregreek {\acctonos \texteta }}\IeC {\textvarsigma } \IeC {\textmu }\IeC {\textepsilon } \IeC {\texttau }\IeC {\textomicron }\IeC {\textnu } \IeC {\textmu }\IeC {\textalpha }\IeC {\texttheta }\IeC {\texteta }\IeC {\texttau }\IeC {\ensuregreek {\acctonos \texteta }}} Naive Bayes}}{44}}
\select@language{greek}
\@writefile{toc}{\select@language{greek}}
\@writefile{lof}{\select@language{greek}}
\@writefile{lot}{\select@language{greek}}
\select@language{english}
\@writefile{toc}{\select@language{english}}
\@writefile{lof}{\select@language{english}}
\@writefile{lot}{\select@language{english}}
\@writefile{lot}{\contentsline {table}{\numberline {4.19}{\ignorespaces \textlatin  {Average Rankings of the algorithms (Naive Bayes)}}}{45}}
\select@language{greek}
\@writefile{toc}{\select@language{greek}}
\@writefile{lof}{\select@language{greek}}
\@writefile{lot}{\select@language{greek}}
\select@language{english}
\@writefile{toc}{\select@language{english}}
\@writefile{lof}{\select@language{english}}
\@writefile{lot}{\select@language{english}}
\@writefile{lot}{\contentsline {table}{\numberline {4.20}{\ignorespaces \textgreek  {\IeC {\textSigma }\IeC {\textkappa }\IeC {\textomicron }\IeC {\textrho } \IeC {\textkappa }\IeC {\ensuregreek {\acctonos \textalpha }}\IeC {\texttheta }\IeC {\textepsilon } \IeC {\textsigma }\IeC {\texttau }\IeC {\textrho }\IeC {\textalpha }\IeC {\texttau }\IeC {\texteta }\IeC {\textgamma }\IeC {\textiota }\IeC {\textkappa }\IeC {\ensuregreek {\acctonos \texteta }}\IeC {\textvarsigma } \IeC {\textmu }\IeC {\textepsilon } \IeC {\texttau }\IeC {\textomicron }\IeC {\textnu } \IeC {\textmu }\IeC {\textalpha }\IeC {\texttheta }\IeC {\texteta }\IeC {\texttau }\IeC {\ensuregreek {\acctonos \texteta }}} SMOsync}}{45}}
\select@language{greek}
\@writefile{toc}{\select@language{greek}}
\@writefile{lof}{\select@language{greek}}
\@writefile{lot}{\select@language{greek}}
\select@language{english}
\@writefile{toc}{\select@language{english}}
\@writefile{lof}{\select@language{english}}
\@writefile{lot}{\select@language{english}}
\@writefile{lot}{\contentsline {table}{\numberline {4.21}{\ignorespaces \textlatin  {Average Rankings of the algorithms (SMOsync)} }}{45}}
\select@language{greek}
\@writefile{toc}{\select@language{greek}}
\@writefile{lof}{\select@language{greek}}
\@writefile{lot}{\select@language{greek}}
\select@language{greek}
\@writefile{toc}{\select@language{greek}}
\@writefile{lof}{\select@language{greek}}
\@writefile{lot}{\select@language{greek}}
\select@language{greek}
\@writefile{toc}{\select@language{greek}}
\@writefile{lof}{\select@language{greek}}
\@writefile{lot}{\select@language{greek}}
\select@language{english}
\@writefile{toc}{\select@language{english}}
\@writefile{lof}{\select@language{english}}
\@writefile{lot}{\select@language{english}}
\@writefile{lot}{\contentsline {table}{\numberline {4.22}{\ignorespaces \textgreek  {\IeC {\textSigma }\IeC {\textkappa }\IeC {\textomicron }\IeC {\textrho } \IeC {\textkappa }\IeC {\ensuregreek {\acctonos \textalpha }}\IeC {\texttheta }\IeC {\textepsilon } \IeC {\textsigma }\IeC {\texttau }\IeC {\textrho }\IeC {\textalpha }\IeC {\texttau }\IeC {\texteta }\IeC {\textgamma }\IeC {\textiota }\IeC {\textkappa }\IeC {\ensuregreek {\acctonos \texteta }}\IeC {\textvarsigma } \IeC {\textmu }\IeC {\textepsilon } \IeC {\texttau }\IeC {\textomicron }\IeC {\textnu } \IeC {\textmu }\IeC {\textalpha }\IeC {\texttheta }\IeC {\texteta }\IeC {\texttau }\IeC {\ensuregreek {\acctonos \texteta }}} IBk}}{46}}
\select@language{greek}
\@writefile{toc}{\select@language{greek}}
\@writefile{lof}{\select@language{greek}}
\@writefile{lot}{\select@language{greek}}
\select@language{english}
\@writefile{toc}{\select@language{english}}
\@writefile{lof}{\select@language{english}}
\@writefile{lot}{\select@language{english}}
\@writefile{lot}{\contentsline {table}{\numberline {4.23}{\ignorespaces \textlatin  {Average Rankings of the algorithms (IBk)} }}{46}}
\select@language{greek}
\@writefile{toc}{\select@language{greek}}
\@writefile{lof}{\select@language{greek}}
\@writefile{lot}{\select@language{greek}}
\select@language{english}
\@writefile{toc}{\select@language{english}}
\@writefile{lof}{\select@language{english}}
\@writefile{lot}{\select@language{english}}
\@writefile{lot}{\contentsline {table}{\numberline {4.24}{\ignorespaces \textgreek  {\IeC {\textSigma }\IeC {\textkappa }\IeC {\textomicron }\IeC {\textrho } \IeC {\textkappa }\IeC {\ensuregreek {\acctonos \textalpha }}\IeC {\texttheta }\IeC {\textepsilon } \IeC {\textsigma }\IeC {\texttau }\IeC {\textrho }\IeC {\textalpha }\IeC {\texttau }\IeC {\texteta }\IeC {\textgamma }\IeC {\textiota }\IeC {\textkappa }\IeC {\ensuregreek {\acctonos \texteta }}\IeC {\textvarsigma } \IeC {\textmu }\IeC {\textepsilon } \IeC {\texttau }\IeC {\textomicron }\IeC {\textnu } \IeC {\textmu }\IeC {\textalpha }\IeC {\texttheta }\IeC {\texteta }\IeC {\texttau }\IeC {\ensuregreek {\acctonos \texteta }}} \textlatin  {J48}}}{47}}
\select@language{greek}
\@writefile{toc}{\select@language{greek}}
\@writefile{lof}{\select@language{greek}}
\@writefile{lot}{\select@language{greek}}
\select@language{english}
\@writefile{toc}{\select@language{english}}
\@writefile{lof}{\select@language{english}}
\@writefile{lot}{\select@language{english}}
\@writefile{lot}{\contentsline {table}{\numberline {4.25}{\ignorespaces \textlatin  {Average Rankings of the algorithms (J48)} }}{47}}
\select@language{greek}
\@writefile{toc}{\select@language{greek}}
\@writefile{lof}{\select@language{greek}}
\@writefile{lot}{\select@language{greek}}
\select@language{english}
\@writefile{toc}{\select@language{english}}
\@writefile{lof}{\select@language{english}}
\@writefile{lot}{\select@language{english}}
\select@language{greek}
\@writefile{toc}{\select@language{greek}}
\@writefile{lof}{\select@language{greek}}
\@writefile{lot}{\select@language{greek}}
\select@language{greek}
\@writefile{toc}{\select@language{greek}}
\@writefile{lof}{\select@language{greek}}
\@writefile{lot}{\select@language{greek}}
\@writefile{lot}{\contentsline {table}{\numberline {4.26}{\ignorespaces \textgreek  {\IeC {\textSigma }\IeC {\textkappa }\IeC {\textomicron }\IeC {\textrho } \IeC {\textkappa }\IeC {\ensuregreek {\acctonos \textalpha }}\IeC {\texttheta }\IeC {\textepsilon } \IeC {\textsigma }\IeC {\texttau }\IeC {\textrho }\IeC {\textalpha }\IeC {\texttau }\IeC {\texteta }\IeC {\textgamma }\IeC {\textiota }\IeC {\textkappa }\IeC {\ensuregreek {\acctonos \texteta }}\IeC {\textvarsigma } \IeC {\textmu }\IeC {\textepsilon } \IeC {\texttau }\IeC {\textomicron }\IeC {\textnu } \IeC {\textmu }\IeC {\textalpha }\IeC {\texttheta }\IeC {\texteta }\IeC {\texttau }\IeC {\ensuregreek {\acctonos \texteta }}} \textlatin  {Random Forest}}}{48}}
\select@language{greek}
\@writefile{toc}{\select@language{greek}}
\@writefile{lof}{\select@language{greek}}
\@writefile{lot}{\select@language{greek}}
\select@language{english}
\@writefile{toc}{\select@language{english}}
\@writefile{lof}{\select@language{english}}
\@writefile{lot}{\select@language{english}}
\@writefile{lot}{\contentsline {table}{\numberline {4.27}{\ignorespaces \textlatin  {Average Rankings of the algorithms (Random Forest)} }}{48}}
\select@language{greek}
\@writefile{toc}{\select@language{greek}}
\@writefile{lof}{\select@language{greek}}
\@writefile{lot}{\select@language{greek}}
\@setckpt{mytex/chap5}{
\setcounter{page}{49}
\setcounter{equation}{0}
\setcounter{enumi}{2}
\setcounter{enumii}{0}
\setcounter{enumiii}{0}
\setcounter{enumiv}{0}
\setcounter{footnote}{8}
\setcounter{mpfootnote}{0}
\setcounter{parentequation}{12}
\setcounter{part}{0}
\setcounter{chapter}{4}
\setcounter{section}{4}
\setcounter{subsection}{0}
\setcounter{subsubsection}{0}
\setcounter{paragraph}{0}
\setcounter{subparagraph}{0}
\setcounter{figure}{5}
\setcounter{table}{27}
\setcounter{float@type}{16}
\setcounter{algorithm}{4}
\setcounter{ALG@line}{12}
\setcounter{ALG@rem}{0}
\setcounter{ALG@nested}{0}
\setcounter{ALG@Lnr}{2}
\setcounter{ALG@blocknr}{10}
\setcounter{ALG@storecount}{0}
\setcounter{ALG@tmpcounter}{0}
\setcounter{lstnumber}{2}
\setcounter{definition}{0}
\setcounter{proposition}{0}
\setcounter{theorem}{0}
\setcounter{corollary}{0}
\setcounter{lemma}{0}
\setcounter{example}{0}
\setcounter{remark}{0}
\setcounter{notation}{0}
\setcounter{law}{0}
\setcounter{lstlisting}{0}
}
