\relax 
\@writefile{toc}{\contentsline {chapter}{\numberline {5}\IeC {\textEpsilon }\IeC {\textpi }\IeC {\ensuregreek {\acctonos \textiota }}\IeC {\textlambda }\IeC {\textomicron }\IeC {\textgamma }\IeC {\textomicron }\IeC {\textvarsigma }}{49}}
\@writefile{lof}{\addvspace {10\p@ }}
\@writefile{lot}{\addvspace {10\p@ }}
\@writefile{toc}{\contentsline {section}{\numberline {5.1}\IeC {\textSigma }\IeC {\textupsilon }\IeC {\textmu }\IeC {\textpi }\IeC {\textepsilon }\IeC {\textrho }\IeC {\ensuregreek {\acctonos \textalpha }}\IeC {\textsigma }\IeC {\textmu }\IeC {\textalpha }\IeC {\texttau }\IeC {\textalpha }}{49}}
\@writefile{toc}{\contentsline {section}{\numberline {5.2}\IeC {\textMu }\IeC {\textepsilon }\IeC {\textlambda }\IeC {\textlambda }\IeC {\textomicron }\IeC {\textnu }\IeC {\texttau }\IeC {\textiota }\IeC {\textkappa }\IeC {\ensuregreek {\acctonos \textepsilon }}\IeC {\textvarsigma } \IeC {\textepsilon }\IeC {\textpi }\IeC {\textepsilon }\IeC {\textkappa }\IeC {\texttau }\IeC {\ensuregreek {\acctonos \textalpha }}\IeC {\textsigma }\IeC {\textepsilon }\IeC {\textiota }\IeC {\textvarsigma }}{49}}
\@setckpt{mytex/chap6}{
\setcounter{page}{50}
\setcounter{equation}{0}
\setcounter{enumi}{2}
\setcounter{enumii}{0}
\setcounter{enumiii}{0}
\setcounter{enumiv}{0}
\setcounter{footnote}{0}
\setcounter{mpfootnote}{0}
\setcounter{parentequation}{12}
\setcounter{part}{0}
\setcounter{chapter}{5}
\setcounter{section}{2}
\setcounter{subsection}{0}
\setcounter{subsubsection}{0}
\setcounter{paragraph}{0}
\setcounter{subparagraph}{0}
\setcounter{figure}{0}
\setcounter{table}{0}
\setcounter{float@type}{16}
\setcounter{algorithm}{4}
\setcounter{ALG@line}{12}
\setcounter{ALG@rem}{0}
\setcounter{ALG@nested}{0}
\setcounter{ALG@Lnr}{2}
\setcounter{ALG@blocknr}{10}
\setcounter{ALG@storecount}{0}
\setcounter{ALG@tmpcounter}{0}
\setcounter{lstnumber}{2}
\setcounter{definition}{0}
\setcounter{proposition}{0}
\setcounter{theorem}{0}
\setcounter{corollary}{0}
\setcounter{lemma}{0}
\setcounter{example}{0}
\setcounter{remark}{0}
\setcounter{notation}{0}
\setcounter{law}{0}
\setcounter{lstlisting}{0}
}
