\relax 
\citation{Mitchell1997machine}
\citation{Wu:2007}
\@writefile{toc}{\contentsline {chapter}{\numberline {3}\IeC {\textAlpha }\IeC {\textlambda }\IeC {\textgamma }\IeC {\ensuregreek {\acctonos \textomicron }}\IeC {\textrho }\IeC {\textiota }\IeC {\texttheta }\IeC {\textmu }\IeC {\textomicron }\IeC {\textiota }}{15}}
\@writefile{lof}{\addvspace {10\p@ }}
\@writefile{lot}{\addvspace {10\p@ }}
\@writefile{toc}{\contentsline {section}{\numberline {3.1}\textlatin  {k-}\IeC {\textKappa }\IeC {\textomicron }\IeC {\textnu }\IeC {\texttau }\IeC {\textiota }\IeC {\textnu }\IeC {\ensuregreek {\acctonos \textomicron }}\IeC {\texttau }\IeC {\textepsilon }\IeC {\textrho }\IeC {\textomicron }\IeC {\textiota } \IeC {\textGamma }\IeC {\textepsilon }\IeC {\ensuregreek {\acctonos \textiota }}\IeC {\texttau }\IeC {\textomicron }\IeC {\textnu }\IeC {\textepsilon }\IeC {\textvarsigma }}{15}}
\select@language{english}
\@writefile{toc}{\select@language{english}}
\@writefile{lof}{\select@language{english}}
\@writefile{lot}{\select@language{english}}
\select@language{greek}
\@writefile{toc}{\select@language{greek}}
\@writefile{lof}{\select@language{greek}}
\@writefile{lot}{\select@language{greek}}
\select@language{greek}
\@writefile{toc}{\select@language{greek}}
\@writefile{lof}{\select@language{greek}}
\@writefile{lot}{\select@language{greek}}
\@writefile{loa}{\contentsline {algorithm}{\numberline {1}{\ignorespaces \textgreek  {\IeC {\textAlpha }\IeC {\textlambda }\IeC {\textgamma }\IeC {\ensuregreek {\acctonos \textomicron }}\IeC {\textrho }\IeC {\textiota }\IeC {\texttheta }\IeC {\textmu }\IeC {\textomicron }\IeC {\textvarsigma }} kNN \textgreek  {\IeC {\textgamma }\IeC {\textiota }\IeC {\textalpha } \IeC {\textsigma }\IeC {\textupsilon }\IeC {\textnu }\IeC {\ensuregreek {\acctonos \textalpha }}\IeC {\textrho }\IeC {\texttau }\IeC {\texteta }\IeC {\textsigma }\IeC {\texteta } $f:\mathbb  {R}^n \rightarrow \mathcal  {V}$ }}}{16}}
\newlabel{kNN}{{1}{16}}
\select@language{greek}
\@writefile{toc}{\select@language{greek}}
\@writefile{lof}{\select@language{greek}}
\@writefile{lot}{\select@language{greek}}
\citation{Wu:2007}
\citation{Alpaydin:2014}
\citation{Wu:2007}
\@writefile{toc}{\contentsline {section}{\numberline {3.2}\textlatin  {Naive Bayes}}{17}}
\select@language{greek}
\@writefile{toc}{\select@language{greek}}
\@writefile{lof}{\select@language{greek}}
\@writefile{lot}{\select@language{greek}}
\select@language{greek}
\@writefile{toc}{\select@language{greek}}
\@writefile{lof}{\select@language{greek}}
\@writefile{lot}{\select@language{greek}}
\@writefile{toc}{\contentsline {section}{\numberline {3.3}\IeC {\textMu }\IeC {\texteta }\IeC {\textchi }\IeC {\textalpha }\IeC {\textnu }\IeC {\ensuregreek {\acctonos \textepsilon }}\IeC {\textvarsigma } \IeC {\textDelta }\IeC {\textiota }\IeC {\textalpha }\IeC {\textnu }\IeC {\textupsilon }\IeC {\textsigma }\IeC {\textmu }\IeC {\ensuregreek {\acctonos \textalpha }}\IeC {\texttau }\IeC {\textomega }\IeC {\textnu } \IeC {\textUpsilon }\IeC {\textpi }\IeC {\textomicron }\IeC {\textsigma }\IeC {\texttau }\IeC {\ensuregreek {\acctonos \texteta }}\IeC {\textrho }\IeC {\textiota }\IeC {\textxi }\IeC {\texteta }\IeC {\textvarsigma }}{18}}
\select@language{english}
\@writefile{toc}{\select@language{english}}
\@writefile{lof}{\select@language{english}}
\@writefile{lot}{\select@language{english}}
\select@language{greek}
\@writefile{toc}{\select@language{greek}}
\@writefile{lof}{\select@language{greek}}
\@writefile{lot}{\select@language{greek}}
\citation{Kotsiantis07}
\@writefile{lof}{\contentsline {figure}{\numberline {3.1}{\ignorespaces \IeC {\textSigma }\IeC {\textchi }\IeC {\ensuregreek {\acctonos \textepsilon }}\IeC {\textdelta }\IeC {\textiota }\IeC {\textomicron } \IeC {\texttau }\IeC {\textomicron }\IeC {\textupsilon } \IeC {\textbeta }\IeC {\ensuregreek {\acctonos \textepsilon }}\IeC {\textlambda }\IeC {\texttau }\IeC {\textiota }\IeC {\textsigma }\IeC {\texttau }\IeC {\textomicron }\IeC {\textupsilon } \IeC {\textupsilon }\IeC {\textpi }\IeC {\textepsilon }\IeC {\textrho }\IeC {\textepsilon }\IeC {\textpi }\IeC {\ensuregreek {\acctonos \textiota }}\IeC {\textpi }\IeC {\textepsilon }\IeC {\textdelta }\IeC {\textomicron }\IeC {\textupsilon } \IeC {\textsigma }\IeC {\texttau }\IeC {\texteta }\IeC {\textnu } \IeC {\textpi }\IeC {\textepsilon }\IeC {\textrho }\IeC {\ensuregreek {\acctonos \textiota }}\IeC {\textpi }\IeC {\texttau }\IeC {\textomega }\IeC {\textsigma }\IeC {\texteta } \IeC {\textdelta }\IeC {\ensuregreek {\acctonos \textupsilon }}\IeC {\textomicron } \IeC {\textgamma }\IeC {\textrho }\IeC {\textalpha }\IeC {\textmu }\IeC {\textmu }\IeC {\textiota }\IeC {\textkappa }\IeC {\ensuregreek {\acctonos \textalpha }} \IeC {\textdelta }\IeC {\textiota }\IeC {\textalpha }\IeC {\textchi }\IeC {\textomega }\IeC {\textrho }\IeC {\ensuregreek {\acctonos \textiota }}\IeC {\textsigma }\IeC {\textiota }\IeC {\textmu }\IeC {\textomega }\IeC {\textnu } \IeC {\textsigma }\IeC {\textupsilon }\IeC {\textnu }\IeC {\ensuregreek {\acctonos \textomicron }}\IeC {\textlambda }\IeC {\textomega }\IeC {\textnu }.}}{19}}
\newlabel{svm:2}{{3.10}{19}}
\citation{Platt:1999}
\citation{Quinlan1993}
\citation{Wu:2007}
\select@language{greek}
\@writefile{toc}{\select@language{greek}}
\@writefile{lof}{\select@language{greek}}
\@writefile{lot}{\select@language{greek}}
\select@language{greek}
\@writefile{toc}{\select@language{greek}}
\@writefile{lof}{\select@language{greek}}
\@writefile{lot}{\select@language{greek}}
\@writefile{toc}{\contentsline {section}{\numberline {3.4}\IeC {\textDelta }\IeC {\ensuregreek {\acctonos \textepsilon }}\IeC {\textnu }\IeC {\texttau }\IeC {\textrho }\IeC {\textalpha } \IeC {\textAlpha }\IeC {\textpi }\IeC {\textomicron }\IeC {\textphi }\IeC {\ensuregreek {\acctonos \textalpha }}\IeC {\textsigma }\IeC {\textepsilon }\IeC {\textomega }\IeC {\textnu }}{20}}
\select@language{english}
\@writefile{toc}{\select@language{english}}
\@writefile{lof}{\select@language{english}}
\@writefile{lot}{\select@language{english}}
\citation{Tan:2005}
\@writefile{loa}{\contentsline {algorithm}{\numberline {2}{\ignorespaces C4.5 algorithm}}{21}}
\newlabel{C4.5}{{2}{21}}
\select@language{greek}
\@writefile{toc}{\select@language{greek}}
\@writefile{lof}{\select@language{greek}}
\@writefile{lot}{\select@language{greek}}
\@writefile{lof}{\contentsline {figure}{\numberline {3.2}{\ignorespaces \IeC {\textSigma }\IeC {\textupsilon }\IeC {\textnu }\IeC {\texttheta }\IeC {\ensuregreek {\acctonos \texteta }}\IeC {\textkappa }\IeC {\texteta } \IeC {\textepsilon }\IeC {\textlambda }\IeC {\ensuregreek {\acctonos \textepsilon }}\IeC {\textgamma }\IeC {\textchi }\IeC {\textomicron }\IeC {\textupsilon } \IeC {\textgamma }\IeC {\textiota }\IeC {\textalpha } \IeC {\textdelta }\IeC {\textupsilon }\IeC {\textalpha }\IeC {\textdelta }\IeC {\textiota }\IeC {\textkappa }\IeC {\ensuregreek {\acctonos \textalpha }} \IeC {\textchi }\IeC {\textalpha }\IeC {\textrho }\IeC {\textalpha }\IeC {\textkappa }\IeC {\texttau }\IeC {\texteta }\IeC {\textrho }\IeC {\textiota }\IeC {\textsigma }\IeC {\texttau }\IeC {\textiota }\IeC {\textkappa }\IeC {\ensuregreek {\acctonos \textalpha }}.}}{21}}
\citation{Alpaydin:2014}
\select@language{greek}
\@writefile{toc}{\select@language{greek}}
\@writefile{lof}{\select@language{greek}}
\@writefile{lot}{\select@language{greek}}
\select@language{greek}
\@writefile{toc}{\select@language{greek}}
\@writefile{lof}{\select@language{greek}}
\@writefile{lot}{\select@language{greek}}
\@writefile{lof}{\contentsline {figure}{\numberline {3.3}{\ignorespaces \IeC {\textPi }\IeC {\textalpha }\IeC {\textrho }\IeC {\ensuregreek {\acctonos \textalpha }}\IeC {\textdelta }\IeC {\textepsilon }\IeC {\textiota }\IeC {\textgamma }\IeC {\textmu }\IeC {\textalpha } \IeC {\textdelta }\IeC {\textupsilon }\IeC {\textalpha }\IeC {\textdelta }\IeC {\textiota }\IeC {\textkappa }\IeC {\textomicron }\IeC {\ensuregreek {\acctonos \textupsilon }} \IeC {\textdelta }\IeC {\textiota }\IeC {\textalpha }\IeC {\textchi }\IeC {\textomega }\IeC {\textrho }\IeC {\textiota }\IeC {\textsigma }\IeC {\textmu }\IeC {\textomicron }\IeC {\ensuregreek {\acctonos \textupsilon }} \foreignlanguage  {english}{k} \IeC {\texttau }\IeC {\textiota }\IeC {\textmu }\IeC {\ensuregreek {\acctonos \textomega }}\IeC {\textnu } \IeC {\textchi }\IeC {\textalpha }\IeC {\textrho }\IeC {\textalpha }\IeC {\textkappa }\IeC {\texttau }\IeC {\texteta }\IeC {\textrho }\IeC {\textiota }\IeC {\textsigma }\IeC {\texttau }\IeC {\textiota }\IeC {\textkappa }\IeC {\ensuregreek {\acctonos \textomega }}\IeC {\textnu } \IeC {\textpi }\IeC {\textomicron }\IeC {\textupsilon } \IeC {\textepsilon }\IeC {\textnu }\IeC {\ensuregreek {\acctonos \textomega }}\IeC {\textnu }\IeC {\textomicron }\IeC {\textnu }\IeC {\texttau }\IeC {\textalpha }\IeC {\textiota } \IeC {\textmu }\IeC {\textepsilon } \IeC {\textdelta }\IeC {\textiota }\IeC {\textalpha }\IeC {\textzeta }\IeC {\textepsilon }\IeC {\ensuregreek {\acctonos \textupsilon }}\IeC {\textxi }\IeC {\textepsilon }\IeC {\textiota }\IeC {\textvarsigma }.}}{22}}
\citation{Tan:2005}
\citation{ho1995random}
\@writefile{toc}{\contentsline {section}{\numberline {3.5}\IeC {\textTau }\IeC {\textupsilon }\IeC {\textchi }\IeC {\textalpha }\IeC {\ensuregreek {\acctonos \textiota }}\IeC {\textalpha } \IeC {\textDelta }\IeC {\ensuregreek {\acctonos \textalpha }}\IeC {\textsigma }\IeC {\texteta }}{23}}
\@setckpt{mytex/chap34}{
\setcounter{page}{24}
\setcounter{equation}{14}
\setcounter{enumi}{0}
\setcounter{enumii}{0}
\setcounter{enumiii}{0}
\setcounter{enumiv}{0}
\setcounter{footnote}{0}
\setcounter{mpfootnote}{0}
\setcounter{parentequation}{12}
\setcounter{part}{0}
\setcounter{chapter}{3}
\setcounter{section}{5}
\setcounter{subsection}{0}
\setcounter{subsubsection}{0}
\setcounter{paragraph}{0}
\setcounter{subparagraph}{0}
\setcounter{figure}{3}
\setcounter{table}{0}
\setcounter{float@type}{16}
\setcounter{algorithm}{2}
\setcounter{ALG@line}{12}
\setcounter{ALG@rem}{0}
\setcounter{ALG@nested}{0}
\setcounter{ALG@Lnr}{2}
\setcounter{ALG@blocknr}{10}
\setcounter{ALG@storecount}{0}
\setcounter{ALG@tmpcounter}{0}
\setcounter{lstnumber}{1}
\setcounter{definition}{0}
\setcounter{proposition}{0}
\setcounter{theorem}{0}
\setcounter{corollary}{0}
\setcounter{lemma}{0}
\setcounter{example}{0}
\setcounter{remark}{0}
\setcounter{notation}{0}
\setcounter{law}{0}
\setcounter{lstlisting}{0}
}
