\relax 
\citation{fedorov1972theory}
\citation{atkinson1992optimum}
\citation{Settles2010}
\citation{Angluin1988}
\citation{baum1992query}
\citation{Cohn:1996}
\@writefile{toc}{\contentsline {chapter}{\numberline {2}\IeC {\textEpsilon }\IeC {\textpi }\IeC {\textiota }\IeC {\textsigma }\IeC {\textkappa }\IeC {\ensuregreek {\acctonos \textomicron }}\IeC {\textpi }\IeC {\texteta }\IeC {\textsigma }\IeC {\texteta } \IeC {\textbeta }\IeC {\textiota }\IeC {\textbeta }\IeC {\textlambda }\IeC {\textiota }\IeC {\textomicron }\IeC {\textgamma }\IeC {\textrho }\IeC {\textalpha }\IeC {\textphi }\IeC {\ensuregreek {\acctonos \textiota }}\IeC {\textalpha }\IeC {\textvarsigma } \IeC {\textEpsilon }\IeC {\textnu }\IeC {\textepsilon }\IeC {\textrho }\IeC {\textgamma }\IeC {\ensuregreek {\acctonos \texteta }}\IeC {\textvarsigma } \IeC {\textMu }\IeC {\ensuregreek {\acctonos \textalpha }}\IeC {\texttheta }\IeC {\texteta }\IeC {\textsigma }\IeC {\texteta }\IeC {\textvarsigma }}{5}}
\@writefile{lof}{\addvspace {10\p@ }}
\@writefile{lot}{\addvspace {10\p@ }}
\@writefile{toc}{\contentsline {section}{\numberline {2.1}\IeC {\textTau }\IeC {\textiota } \IeC {\textepsilon }\IeC {\ensuregreek {\acctonos \textiota }}\IeC {\textnu }\IeC {\textalpha }\IeC {\textiota } \IeC {\texteta } \IeC {\textmu }\IeC {\ensuregreek {\acctonos \textepsilon }}\IeC {\texttheta }\IeC {\textomicron }\IeC {\textdelta }\IeC {\textomicron }\IeC {\textvarsigma } \IeC {\texttau }\IeC {\texteta }\IeC {\textvarsigma } \IeC {\textEpsilon }\IeC {\textnu }\IeC {\textepsilon }\IeC {\textrho }\IeC {\textgamma }\IeC {\ensuregreek {\acctonos \texteta }}\IeC {\textvarsigma } \IeC {\textMu }\IeC {\ensuregreek {\acctonos \textalpha }}\IeC {\texttheta }\IeC {\texteta }\IeC {\textsigma }\IeC {\texteta }\IeC {\textvarsigma }}{5}}
\citation{SettlesPresent}
\citation{atlas1990training}
\select@language{greek}
\@writefile{toc}{\select@language{greek}}
\@writefile{lof}{\select@language{greek}}
\@writefile{lot}{\select@language{greek}}
\select@language{greek}
\@writefile{toc}{\select@language{greek}}
\@writefile{lof}{\select@language{greek}}
\@writefile{lot}{\select@language{greek}}
\@writefile{lof}{\contentsline {figure}{\numberline {2.1}{\ignorespaces \IeC {\textEta } \IeC {\textdelta }\IeC {\textiota }\IeC {\textalpha }\IeC {\textdelta }\IeC {\textiota }\IeC {\textkappa }\IeC {\textalpha }\IeC {\textsigma }\IeC {\ensuregreek {\acctonos \textiota }}\IeC {\textalpha } \IeC {\texttau }\IeC {\texteta }\IeC {\textvarsigma } \IeC {\textSigma }\IeC {\ensuregreek {\acctonos \textupsilon }}\IeC {\textnu }\IeC {\texttheta }\IeC {\textepsilon }\IeC {\textsigma }\IeC {\texteta }\IeC {\textvarsigma } \IeC {\textEpsilon }\IeC {\textrho }\IeC {\textomega }\IeC {\texttau }\IeC {\texteta }\IeC {\textmu }\IeC {\ensuregreek {\acctonos \textalpha }}\IeC {\texttau }\IeC {\textomega }\IeC {\textnu } (\textlatin  {Query Synthesis}) \cite  {SettlesPresent}.}}{6}}
\citation{SettlesPresent}
\citation{SettlesPresent}
\citation{lewis1994sequential}
\@writefile{lof}{\contentsline {figure}{\numberline {2.2}{\ignorespaces \IeC {\textEta } \IeC {\textdelta }\IeC {\textiota }\IeC {\textalpha }\IeC {\textdelta }\IeC {\textiota }\IeC {\textkappa }\IeC {\textalpha }\IeC {\textsigma }\IeC {\ensuregreek {\acctonos \textiota }}\IeC {\textalpha } \IeC {\texttau }\IeC {\texteta }\IeC {\textvarsigma } \IeC {\textEpsilon }\IeC {\textpi }\IeC {\textiota }\IeC {\textlambda }\IeC {\textepsilon }\IeC {\textkappa }\IeC {\texttau }\IeC {\textiota }\IeC {\textkappa }\IeC {\ensuregreek {\acctonos \texteta }}\IeC {\textvarsigma } \IeC {\textDelta }\IeC {\textepsilon }\IeC {\textiota }\IeC {\textgamma }\IeC {\textmu }\IeC {\textalpha }\IeC {\texttau }\IeC {\textomicron }\IeC {\textlambda }\IeC {\texteta }\IeC {\textpsi }\IeC {\ensuregreek {\acctonos \textiota }}\IeC {\textalpha }\IeC {\textvarsigma } (\textlatin  {Stream based Selective Sampling}) \cite  {SettlesPresent}.}}{7}}
\citation{SettlesPresent}
\citation{SettlesPresent}
\select@language{greek}
\@writefile{toc}{\select@language{greek}}
\@writefile{lof}{\select@language{greek}}
\@writefile{lot}{\select@language{greek}}
\select@language{greek}
\@writefile{toc}{\select@language{greek}}
\@writefile{lof}{\select@language{greek}}
\@writefile{lot}{\select@language{greek}}
\@writefile{lof}{\contentsline {figure}{\numberline {2.3}{\ignorespaces \IeC {\textEta } \IeC {\textdelta }\IeC {\textiota }\IeC {\textalpha }\IeC {\textdelta }\IeC {\textiota }\IeC {\textkappa }\IeC {\textalpha }\IeC {\textsigma }\IeC {\ensuregreek {\acctonos \textiota }}\IeC {\textalpha } \IeC {\texttau }\IeC {\texteta }\IeC {\textvarsigma } \IeC {\textdelta }\IeC {\textepsilon }\IeC {\textiota }\IeC {\textgamma }\IeC {\textmu }\IeC {\textalpha }\IeC {\texttau }\IeC {\textomicron }\IeC {\textlambda }\IeC {\texteta }\IeC {\textpsi }\IeC {\ensuregreek {\acctonos \textiota }}\IeC {\textalpha }\IeC {\textvarsigma } \IeC {\textalpha }\IeC {\textpi }\IeC {\ensuregreek {\acctonos \textomicron }} \IeC {\textbeta }\IeC {\ensuregreek {\acctonos \textalpha }}\IeC {\textsigma }\IeC {\texteta } \IeC {\textdelta }\IeC {\textepsilon }\IeC {\textdelta }\IeC {\textomicron }\IeC {\textmu }\IeC {\ensuregreek {\acctonos \textepsilon }}\IeC {\textnu }\IeC {\textomega }\IeC {\textnu } ({\textlatin  {Pool Based Sampling})} \cite  {SettlesPresent}.}}{8}}
\@writefile{toc}{\contentsline {section}{\numberline {2.2}\IeC {\textEpsilon }\IeC {\textpi }\IeC {\textiota }\IeC {\textsigma }\IeC {\textkappa }\IeC {\ensuregreek {\acctonos \textomicron }}\IeC {\textpi }\IeC {\texteta }\IeC {\textsigma }\IeC {\texteta }}{8}}
\citation{pereira2017empirical}
\citation{dos2015selectively}
\@writefile{toc}{\contentsline {subsection}{\numberline {2.2.1}\IeC {\textAlpha }\IeC {\textgamma }\IeC {\textnu }\IeC {\textomega }\IeC {\textsigma }\IeC {\texttau }\IeC {\textiota }\IeC {\textkappa }\IeC {\textiota }\IeC {\textsigma }\IeC {\texttau }\IeC {\textiota }\IeC {\textkappa }\IeC {\ensuregreek {\acctonos \textepsilon }}\IeC {\textvarsigma } \IeC {\textsigma }\IeC {\texttau }\IeC {\textrho }\IeC {\textalpha }\IeC {\texttau }\IeC {\texteta }\IeC {\textgamma }\IeC {\textiota }\IeC {\textkappa }\IeC {\ensuregreek {\acctonos \textepsilon }}\IeC {\textvarsigma }}{9}}
\@writefile{toc}{\contentsline {subsubsection}{\IeC {\textTau }\IeC {\textupsilon }\IeC {\textchi }\IeC {\textalpha }\IeC {\ensuregreek {\acctonos \textiota }}\IeC {\textalpha } \IeC {\textDelta }\IeC {\textepsilon }\IeC {\textiota }\IeC {\textgamma }\IeC {\textmu }\IeC {\textalpha }\IeC {\texttau }\IeC {\textomicron }\IeC {\textlambda }\IeC {\texteta }\IeC {\textpsi }\IeC {\ensuregreek {\acctonos \textiota }}\IeC {\textalpha }}{9}}
\@writefile{toc}{\contentsline {subsubsection}{\IeC {\textBeta }\IeC {\textalpha }\IeC {\textsigma }\IeC {\textiota }\IeC {\textsigma }\IeC {\textmu }\IeC {\ensuregreek {\acctonos \textepsilon }}\IeC {\textnu }\IeC {\texteta } \IeC {\textsigma }\IeC {\texttau }\IeC {\texteta }\IeC {\textnu } \IeC {\textpi }\IeC {\textupsilon }\IeC {\textkappa }\IeC {\textnu }\IeC {\ensuregreek {\acctonos \textomicron }}\IeC {\texttau }\IeC {\texteta }\IeC {\texttau }\IeC {\textalpha }}{9}}
\citation{dasgupta2011two}
\citation{zhu2003combining}
\citation{dasgupta2008hierarchical}
\select@language{greek}
\@writefile{toc}{\select@language{greek}}
\@writefile{lof}{\select@language{greek}}
\@writefile{lot}{\select@language{greek}}
\select@language{greek}
\@writefile{toc}{\select@language{greek}}
\@writefile{lof}{\select@language{greek}}
\@writefile{lot}{\select@language{greek}}
\@writefile{toc}{\contentsline {subsubsection}{\IeC {\textBeta }\IeC {\textalpha }\IeC {\textsigma }\IeC {\textiota }\IeC {\textsigma }\IeC {\textmu }\IeC {\ensuregreek {\acctonos \textepsilon }}\IeC {\textnu }\IeC {\texteta } \IeC {\textsigma }\IeC {\textepsilon } \IeC {\textsigma }\IeC {\textupsilon }\IeC {\textsigma }\IeC {\texttau }\IeC {\ensuregreek {\acctonos \textalpha }}\IeC {\textdelta }\IeC {\textepsilon }\IeC {\textvarsigma }}{10}}
\citation{Mitchell1997machine}
\citation{Cohn1994}
\citation{lewis1994sequential}
\@writefile{toc}{\contentsline {subsubsection}{\IeC {\textAlpha }\IeC {\textnu }\IeC {\textalpha }\IeC {\textzeta }\IeC {\ensuregreek {\acctonos \texteta }}\IeC {\texttau }\IeC {\texteta }\IeC {\textsigma }\IeC {\texteta } \IeC {\textsigma }\IeC {\texttau }\IeC {\textomicron }\IeC {\textnu } \IeC {\textchi }\IeC {\ensuregreek {\acctonos \textomega }}\IeC {\textrho }\IeC {\textomicron } \IeC {\texttau }\IeC {\textomega }\IeC {\textnu } \IeC {\textupsilon }\IeC {\textpi }\IeC {\textomicron }\IeC {\texttheta }\IeC {\ensuregreek {\acctonos \textepsilon }}\IeC {\textsigma }\IeC {\textepsilon }\IeC {\textomega }\IeC {\textnu }}{11}}
\@writefile{toc}{\contentsline {subsection}{\numberline {2.2.2}\IeC {\textMu }\IeC {\texteta } \IeC {\textAlpha }\IeC {\textgamma }\IeC {\textnu }\IeC {\textomega }\IeC {\textsigma }\IeC {\texttau }\IeC {\textiota }\IeC {\textkappa }\IeC {\textiota }\IeC {\textsigma }\IeC {\texttau }\IeC {\textiota }\IeC {\textkappa }\IeC {\ensuregreek {\acctonos \textepsilon }}\IeC {\textvarsigma } \IeC {\textsigma }\IeC {\texttau }\IeC {\textrho }\IeC {\textalpha }\IeC {\texttau }\IeC {\texteta }\IeC {\textgamma }\IeC {\textiota }\IeC {\textkappa }\IeC {\ensuregreek {\acctonos \textepsilon }}\IeC {\textvarsigma }}{11}}
\@writefile{toc}{\contentsline {subsubsection}{\IeC {\textDelta }\IeC {\textepsilon }\IeC {\textiota }\IeC {\textgamma }\IeC {\textmu }\IeC {\textalpha }\IeC {\texttau }\IeC {\textomicron }\IeC {\textlambda }\IeC {\texteta }\IeC {\textpsi }\IeC {\ensuregreek {\acctonos \textiota }}\IeC {\textalpha } \IeC {\textAlpha }\IeC {\textbeta }\IeC {\textepsilon }\IeC {\textbeta }\IeC {\textalpha }\IeC {\textiota }\IeC {\ensuregreek {\acctonos \textomicron }}\IeC {\texttau }\IeC {\texteta }\IeC {\texttau }\IeC {\textalpha }\IeC {\textvarsigma }}{11}}
\citation{pereira2017empirical}
\citation{Settles2008}
\citation{Settles2012}
\citation{guo2007optimistic}
\citation{sivaraman2014active}
\select@language{greek}
\@writefile{toc}{\select@language{greek}}
\@writefile{lof}{\select@language{greek}}
\@writefile{lot}{\select@language{greek}}
\select@language{greek}
\@writefile{toc}{\select@language{greek}}
\@writefile{lof}{\select@language{greek}}
\@writefile{lot}{\select@language{greek}}
\@writefile{toc}{\contentsline {subsubsection}{\IeC {\textBeta }\IeC {\textalpha }\IeC {\textsigma }\IeC {\textiota }\IeC {\textsigma }\IeC {\textmu }\IeC {\ensuregreek {\acctonos \textepsilon }}\IeC {\textnu }\IeC {\texteta } \IeC {\textsigma }\IeC {\texttau }\IeC {\texteta }\IeC {\textnu } \IeC {\textpi }\IeC {\textupsilon }\IeC {\textkappa }\IeC {\textnu }\IeC {\ensuregreek {\acctonos \textomicron }}\IeC {\texttau }\IeC {\texteta }\IeC {\texttau }\IeC {\textalpha }}{12}}
\@writefile{toc}{\contentsline {subsubsection}{\IeC {\textMu }\IeC {\textepsilon }\IeC {\ensuregreek {\acctonos \textiota }}\IeC {\textomega }\IeC {\textsigma }\IeC {\texteta } \IeC {\textAlpha }\IeC {\textnu }\IeC {\textalpha }\IeC {\textmu }\IeC {\textepsilon }\IeC {\textnu }\IeC {\ensuregreek {\acctonos \textomicron }}\IeC {\textmu }\IeC {\textepsilon }\IeC {\textnu }\IeC {\textomicron }\IeC {\textupsilon } \IeC {\textSigma }\IeC {\textphi }\IeC {\ensuregreek {\acctonos \textalpha }}\IeC {\textlambda }\IeC {\textmu }\IeC {\textalpha }\IeC {\texttau }\IeC {\textomicron }\IeC {\textvarsigma }}{12}}
\@writefile{toc}{\contentsline {section}{\numberline {2.3}\IeC {\textPi }\IeC {\textepsilon }\IeC {\textdelta }\IeC {\ensuregreek {\acctonos \textiota }}\IeC {\textalpha } \IeC {\textepsilon }\IeC {\textphi }\IeC {\textalpha }\IeC {\textrho }\IeC {\textmu }\IeC {\textomicron }\IeC {\textgamma }\IeC {\ensuregreek {\acctonos \textomega }}\IeC {\textnu }}{12}}
\@writefile{toc}{\contentsline {subsection}{\numberline {2.3.1}\IeC {\textUpsilon }\IeC {\textpi }\IeC {\textomicron }\IeC {\textlambda }\IeC {\textomicron }\IeC {\textgamma }\IeC {\textiota }\IeC {\textsigma }\IeC {\texttau }\IeC {\textiota }\IeC {\textkappa }\IeC {\ensuregreek {\acctonos \texteta }} \IeC {\ensuregreek {\acctonos \textomicron }}\IeC {\textrho }\IeC {\textalpha }\IeC {\textsigma }\IeC {\texteta } \& \IeC {\textalpha }\IeC {\textupsilon }\IeC {\texttau }\IeC {\textomicron }\IeC {\textkappa }\IeC {\ensuregreek {\acctonos \textiota }}\IeC {\textnu }\IeC {\texteta }\IeC {\textsigma }\IeC {\texteta }}{12}}
\citation{settles2008active}
\citation{elahi2016survey}
\@writefile{toc}{\contentsline {subsection}{\numberline {2.3.2}\IeC {\textSigma }\IeC {\textupsilon }\IeC {\textsigma }\IeC {\texttau }\IeC {\ensuregreek {\acctonos \texteta }}\IeC {\textmu }\IeC {\textalpha }\IeC {\texttau }\IeC {\textalpha } \IeC {\textpi }\IeC {\textrho }\IeC {\textomicron }\IeC {\texttau }\IeC {\ensuregreek {\acctonos \textalpha }}\IeC {\textsigma }\IeC {\textepsilon }\IeC {\textomega }\IeC {\textnu } (\foreignlanguage  {english}{recommender systems})}{13}}
\@setckpt{mytex/chap2}{
\setcounter{page}{14}
\setcounter{equation}{6}
\setcounter{enumi}{0}
\setcounter{enumii}{0}
\setcounter{enumiii}{0}
\setcounter{enumiv}{0}
\setcounter{footnote}{0}
\setcounter{mpfootnote}{0}
\setcounter{parentequation}{0}
\setcounter{part}{0}
\setcounter{chapter}{2}
\setcounter{section}{3}
\setcounter{subsection}{2}
\setcounter{subsubsection}{0}
\setcounter{paragraph}{0}
\setcounter{subparagraph}{0}
\setcounter{figure}{3}
\setcounter{table}{0}
\setcounter{float@type}{16}
\setcounter{algorithm}{0}
\setcounter{ALG@line}{0}
\setcounter{ALG@rem}{0}
\setcounter{ALG@nested}{0}
\setcounter{ALG@Lnr}{2}
\setcounter{ALG@blocknr}{10}
\setcounter{ALG@storecount}{0}
\setcounter{ALG@tmpcounter}{0}
\setcounter{lstnumber}{1}
\setcounter{definition}{0}
\setcounter{proposition}{0}
\setcounter{theorem}{0}
\setcounter{corollary}{0}
\setcounter{lemma}{0}
\setcounter{example}{0}
\setcounter{remark}{0}
\setcounter{notation}{0}
\setcounter{law}{0}
\setcounter{lstlisting}{0}
}
