\relax 
\citation{Kotsiantis07}
\citation{Alpaydin:2014}
\citation{Alpaydin:2014}
\citation{Yasser}
\citation{Vapnik:1995}
\citation{Vapnik:1999}
\@writefile{toc}{\contentsline {chapter}{\numberline {1}\IeC {\textEpsilon }\IeC {\textiota }\IeC {\textsigma }\IeC {\textalpha }\IeC {\textgamma }\IeC {\textomega }\IeC {\textgamma }\IeC {\ensuregreek {\acctonos \texteta }}}{1}}
\@writefile{lof}{\addvspace {10\p@ }}
\@writefile{lot}{\addvspace {10\p@ }}
\@writefile{toc}{\contentsline {section}{\numberline {1.1}\IeC {\textMu }\IeC {\texteta }\IeC {\textchi }\IeC {\textalpha }\IeC {\textnu }\IeC {\textiota }\IeC {\textkappa }\IeC {\ensuregreek {\acctonos \texteta }} \IeC {\textMu }\IeC {\ensuregreek {\acctonos \textalpha }}\IeC {\texttheta }\IeC {\texteta }\IeC {\textsigma }\IeC {\texteta }}{1}}
\citation{Vapnik:1995}
\select@language{greek}
\@writefile{toc}{\select@language{greek}}
\@writefile{lof}{\select@language{greek}}
\@writefile{lot}{\select@language{greek}}
\select@language{greek}
\@writefile{toc}{\select@language{greek}}
\@writefile{lof}{\select@language{greek}}
\@writefile{lot}{\select@language{greek}}
\@writefile{lof}{\contentsline {figure}{\numberline {1.1}{\ignorespaces \IeC {\textTau }\IeC {\textomicron } \IeC {\textgamma }\IeC {\textepsilon }\IeC {\textnu }\IeC {\textiota }\IeC {\textkappa }\IeC {\ensuregreek {\acctonos \textomicron }} \IeC {\textmu }\IeC {\textomicron }\IeC {\textnu }\IeC {\texttau }\IeC {\ensuregreek {\acctonos \textepsilon }}\IeC {\textlambda }\IeC {\textomicron } \IeC {\texttau }\IeC {\texteta }\IeC {\textvarsigma } \IeC {\textupsilon }\IeC {\textpi }\IeC {\textomicron }\IeC {\textlambda }\IeC {\textomicron }\IeC {\textgamma }\IeC {\textiota }\IeC {\textsigma }\IeC {\texttau }\IeC {\textiota }\IeC {\textkappa }\IeC {\ensuregreek {\acctonos \texteta }}\IeC {\textvarsigma } \IeC {\textmu }\IeC {\ensuregreek {\acctonos \textalpha }}\IeC {\texttheta }\IeC {\texteta }\IeC {\textsigma }\IeC {\texteta }\IeC {\textvarsigma } \cite  {Vapnik:1995}.}}{2}}
\citation{Vapnik:1995}
\@writefile{lof}{\contentsline {figure}{\numberline {1.2}{\ignorespaces \IeC {\textEta } \IeC {\textdelta }\IeC {\textiota }\IeC {\textalpha }\IeC {\textdelta }\IeC {\textiota }\IeC {\textkappa }\IeC {\textalpha }\IeC {\textsigma }\IeC {\ensuregreek {\acctonos \textiota }}\IeC {\textalpha } \IeC {\texttau }\IeC {\texteta }\IeC {\textvarsigma } \IeC {\textepsilon }\IeC {\textpi }\IeC {\textiota }\IeC {\textbeta }\IeC {\textlambda }\IeC {\textepsilon }\IeC {\textpi }\IeC {\ensuregreek {\acctonos \textomicron }}\IeC {\textmu }\IeC {\textepsilon }\IeC {\textnu }\IeC {\texteta }\IeC {\textvarsigma } \IeC {\textmu }\IeC {\ensuregreek {\acctonos \textalpha }}\IeC {\texttheta }\IeC {\texteta }\IeC {\textsigma }\IeC {\texteta }\IeC {\textvarsigma } (\IeC {\textsigma }\IeC {\ensuregreek {\acctonos \textupsilon }}\IeC {\textgamma }\IeC {\textchi }\IeC {\textrho }\IeC {\textomicron }\IeC {\textnu }\IeC {\texteta } \IeC {\texttheta }\IeC {\textepsilon }\IeC {\ensuregreek {\acctonos \textomega }}\IeC {\textrho }\IeC {\texteta }\IeC {\textsigma }\IeC {\texteta }).}}{3}}
\newlabel{eq:riskfunc}{{1.1}{3}}
\newlabel{eq:Lpattern}{{1.2}{3}}
\newlabel{eq:Lregress}{{1.3}{3}}
\newlabel{eq:Ldensity}{{1.4}{3}}
\citation{Yasser}
\citation{Settles2008}
\citation{Settles2010}
\citation{Settles2012}
\select@language{greek}
\@writefile{toc}{\select@language{greek}}
\@writefile{lof}{\select@language{greek}}
\@writefile{lot}{\select@language{greek}}
\select@language{greek}
\@writefile{toc}{\select@language{greek}}
\@writefile{lof}{\select@language{greek}}
\@writefile{lot}{\select@language{greek}}
\newlabel{eq:empf}{{1.5}{4}}
\@writefile{toc}{\contentsline {section}{\numberline {1.2}\IeC {\textEpsilon }\IeC {\textnu }\IeC {\textepsilon }\IeC {\textrho }\IeC {\textgamma }\IeC {\texteta }\IeC {\texttau }\IeC {\textiota }\IeC {\textkappa }\IeC {\ensuregreek {\acctonos \texteta }} \IeC {\textMu }\IeC {\texteta }\IeC {\textchi }\IeC {\textalpha }\IeC {\textnu }\IeC {\textiota }\IeC {\textkappa }\IeC {\ensuregreek {\acctonos \texteta }} \IeC {\textMu }\IeC {\ensuregreek {\acctonos \textalpha }}\IeC {\texttheta }\IeC {\texteta }\IeC {\textsigma }\IeC {\texteta }}{4}}
\@writefile{toc}{\contentsline {section}{\numberline {1.3}\IeC {\textSigma }\IeC {\texttau }\IeC {\ensuregreek {\acctonos \textomicron }}\IeC {\textchi }\IeC {\textomicron }\IeC {\textvarsigma } \IeC {\textepsilon }\IeC {\textrho }\IeC {\textgamma }\IeC {\textalpha }\IeC {\textsigma }\IeC {\ensuregreek {\acctonos \textiota }}\IeC {\textalpha }\IeC {\textvarsigma }}{4}}
\@writefile{toc}{\contentsline {section}{\numberline {1.4}\IeC {\textOmicron }\IeC {\textrho }\IeC {\textgamma }\IeC {\ensuregreek {\acctonos \textalpha }}\IeC {\textnu }\IeC {\textomega }\IeC {\textsigma }\IeC {\texteta } \IeC {\texttau }\IeC {\ensuregreek {\acctonos \textomicron }}\IeC {\textmu }\IeC {\textomicron }\IeC {\textupsilon }}{5}}
\@setckpt{mytex/intro}{
\setcounter{page}{6}
\setcounter{equation}{5}
\setcounter{enumi}{0}
\setcounter{enumii}{0}
\setcounter{enumiii}{0}
\setcounter{enumiv}{0}
\setcounter{footnote}{0}
\setcounter{mpfootnote}{0}
\setcounter{parentequation}{0}
\setcounter{part}{0}
\setcounter{chapter}{1}
\setcounter{section}{4}
\setcounter{subsection}{0}
\setcounter{subsubsection}{0}
\setcounter{paragraph}{0}
\setcounter{subparagraph}{0}
\setcounter{figure}{2}
\setcounter{table}{0}
\setcounter{float@type}{16}
\setcounter{algorithm}{0}
\setcounter{ALG@line}{0}
\setcounter{ALG@rem}{0}
\setcounter{ALG@nested}{0}
\setcounter{ALG@Lnr}{2}
\setcounter{ALG@blocknr}{10}
\setcounter{ALG@storecount}{0}
\setcounter{ALG@tmpcounter}{0}
\setcounter{lstnumber}{1}
\setcounter{definition}{0}
\setcounter{proposition}{0}
\setcounter{theorem}{0}
\setcounter{corollary}{0}
\setcounter{lemma}{0}
\setcounter{example}{0}
\setcounter{remark}{0}
\setcounter{notation}{0}
\setcounter{law}{0}
\setcounter{lstlisting}{0}
}
